<?xml version="1.0" encoding="UTF-8" standalone="no"?>
<svg
   width="593.55658"
   height="211"
   viewBox="0 0 157.04519 55.827081"
   version="1.1"
   id="svg8"
   inkscape:version="1.1.1 (1:1.1+202109281949+c3084ef5ed)"
   sodipodi:docname="bottompool.svg"
   inkscape:export-filename="/home/top/Downloads/lightnet/bottompool.png"
   inkscape:export-xdpi="299.82938"
   inkscape:export-ydpi="299.82938"
   xmlns:inkscape="http://www.inkscape.org/namespaces/inkscape"
   xmlns:sodipodi="http://sodipodi.sourceforge.net/DTD/sodipodi-0.dtd"
   xmlns="http://www.w3.org/2000/svg"
   xmlns:svg="http://www.w3.org/2000/svg"
   xmlns:rdf="http://www.w3.org/1999/02/22-rdf-syntax-ns#"
   xmlns:cc="http://creativecommons.org/ns#"
   xmlns:dc="http://purl.org/dc/elements/1.1/">
  <defs
     id="defs2">
    <clipPath
       id="p5e86a32d48">
      <rect
         height="291.29999"
         width="579.42499"
         x="111.03"
         y="50.639999"
         id="rect1921" />
    </clipPath>
    <clipPath
       id="clipPath6194">
      <rect
         height="291.29999"
         width="579.42499"
         x="111.03"
         y="50.639999"
         id="rect6192" />
    </clipPath>
    <clipPath
       id="clipPath6198">
      <rect
         height="291.29999"
         width="579.42499"
         x="111.03"
         y="50.639999"
         id="rect6196" />
    </clipPath>
    <clipPath
       id="clipPath6202">
      <rect
         height="291.29999"
         width="579.42499"
         x="111.03"
         y="50.639999"
         id="rect6200" />
    </clipPath>
    <clipPath
       id="clipPath6206">
      <rect
         height="291.29999"
         width="579.42499"
         x="111.03"
         y="50.639999"
         id="rect6204" />
    </clipPath>
    <clipPath
       id="clipPath6210">
      <rect
         height="291.29999"
         width="579.42499"
         x="111.03"
         y="50.639999"
         id="rect6208" />
    </clipPath>
    <clipPath
       id="clipPath6214">
      <rect
         height="291.29999"
         width="579.42499"
         x="111.03"
         y="50.639999"
         id="rect6212" />
    </clipPath>
    <clipPath
       id="clipPath6218">
      <rect
         height="291.29999"
         width="579.42499"
         x="111.03"
         y="50.639999"
         id="rect6216" />
    </clipPath>
    <clipPath
       id="clipPath6222">
      <rect
         height="291.29999"
         width="579.42499"
         x="111.03"
         y="50.639999"
         id="rect6220" />
    </clipPath>
    <clipPath
       id="clipPath6226">
      <rect
         height="291.29999"
         width="579.42499"
         x="111.03"
         y="50.639999"
         id="rect6224" />
    </clipPath>
    <clipPath
       id="clipPath6230">
      <rect
         height="291.29999"
         width="579.42499"
         x="111.03"
         y="50.639999"
         id="rect6228" />
    </clipPath>
    <clipPath
       id="clipPath6234">
      <rect
         height="291.29999"
         width="579.42499"
         x="111.03"
         y="50.639999"
         id="rect6232" />
    </clipPath>
    <clipPath
       id="clipPath6238">
      <rect
         height="291.29999"
         width="579.42499"
         x="111.03"
         y="50.639999"
         id="rect6236" />
    </clipPath>
    <clipPath
       id="clipPath6242">
      <rect
         height="291.29999"
         width="579.42499"
         x="111.03"
         y="50.639999"
         id="rect6240" />
    </clipPath>
    <clipPath
       id="p94ea90e9ab">
      <rect
         height="291.29999"
         width="579.42499"
         x="768.41498"
         y="50.639999"
         id="rect1924" />
    </clipPath>
    <clipPath
       id="clipPath6248">
      <rect
         height="291.29999"
         width="579.42499"
         x="768.41498"
         y="50.639999"
         id="rect6246" />
    </clipPath>
    <clipPath
       id="clipPath6252">
      <rect
         height="291.29999"
         width="579.42499"
         x="768.41498"
         y="50.639999"
         id="rect6250" />
    </clipPath>
    <clipPath
       id="clipPath6256">
      <rect
         height="291.29999"
         width="579.42499"
         x="768.41498"
         y="50.639999"
         id="rect6254" />
    </clipPath>
    <clipPath
       id="clipPath6260">
      <rect
         height="291.29999"
         width="579.42499"
         x="768.41498"
         y="50.639999"
         id="rect6258" />
    </clipPath>
    <clipPath
       id="clipPath6264">
      <rect
         height="291.29999"
         width="579.42499"
         x="768.41498"
         y="50.639999"
         id="rect6262" />
    </clipPath>
    <clipPath
       id="clipPath6268">
      <rect
         height="291.29999"
         width="579.42499"
         x="768.41498"
         y="50.639999"
         id="rect6266" />
    </clipPath>
    <clipPath
       id="clipPath6272">
      <rect
         height="291.29999"
         width="579.42499"
         x="768.41498"
         y="50.639999"
         id="rect6270" />
    </clipPath>
    <clipPath
       id="clipPath6276">
      <rect
         height="291.29999"
         width="579.42499"
         x="768.41498"
         y="50.639999"
         id="rect6274" />
    </clipPath>
    <clipPath
       id="clipPath6280">
      <rect
         height="291.29999"
         width="579.42499"
         x="768.41498"
         y="50.639999"
         id="rect6278" />
    </clipPath>
    <clipPath
       id="clipPath6284">
      <rect
         height="291.29999"
         width="579.42499"
         x="768.41498"
         y="50.639999"
         id="rect6282" />
    </clipPath>
    <clipPath
       id="clipPath6288">
      <rect
         height="291.29999"
         width="579.42499"
         x="768.41498"
         y="50.639999"
         id="rect6286" />
    </clipPath>
    <clipPath
       id="clipPath6292">
      <rect
         height="291.29999"
         width="579.42499"
         x="768.41498"
         y="50.639999"
         id="rect6290" />
    </clipPath>
    <clipPath
       id="clipPath6296">
      <rect
         height="291.29999"
         width="579.42499"
         x="768.41498"
         y="50.639999"
         id="rect6294" />
    </clipPath>
    <path
       inkscape:connector-curvature="0"
       d="m 44.390625,34.1875 q 3.171875,-1.078125 6.171875,-4.59375 3,-3.515625 6.03125,-9.671875 L 66.609375,0 H 56 l -9.3125,18.703125 q -3.625,7.328125 -7.015625,9.71875 -3.390625,2.390625 -9.25,2.390625 h -10.75 V 0 H 9.8125 v 72.90625 h 22.265625 q 12.5,0 18.65625,-5.234375 6.15625,-5.21875 6.15625,-15.765625 0,-6.890625 -3.203125,-11.4375 -3.203125,-4.53125 -9.296875,-6.28125 z m -24.71875,30.609375 v -25.875 h 12.40625 q 7.125,0 10.765625,3.296875 3.640625,3.296875 3.640625,9.6875 0,6.390625 -3.640625,9.640625 -3.640625,3.25 -10.765625,3.25 z"
       id="DejaVuSans-52" />
    <path
       inkscape:connector-curvature="0"
       d="M 59.515625,10.40625 V 29.984375 H 43.40625 v 8.109375 h 25.875 V 6.78125 Q 63.578125,2.734375 56.6875,0.65625 49.8125,-1.421875 42,-1.421875 q -17.09375,0 -26.75,9.984375 -9.640625,10 -9.640625,27.8125 0,17.875 9.640625,27.859375 9.65625,9.984375 26.75,9.984375 7.125,0 13.546875,-1.765625 6.421875,-1.75 11.84375,-5.171875 v -10.5 q -5.46875,4.640625 -11.625,6.984375 -6.15625,2.34375 -12.9375,2.34375 -13.390625,0 -20.109375,-7.46875 -6.703125,-7.46875 -6.703125,-22.265625 0,-14.75 6.703125,-22.21875 6.71875,-7.46875 20.109375,-7.46875 5.21875,0 9.3125,0.90625 4.109375,0.90625 7.375,2.8125 z"
       id="DejaVuSans-47" />
    <path
       inkscape:connector-curvature="0"
       d="M 19.671875,34.8125 V 8.109375 H 35.5 q 7.953125,0 11.78125,3.296875 3.84375,3.296875 3.84375,10.078125 0,6.84375 -3.84375,10.078125 -3.828125,3.25 -11.78125,3.25 z m 0,29.984375 V 42.828125 H 34.28125 q 7.21875,0 10.75,2.703125 3.546875,2.71875 3.546875,8.28125 0,5.515625 -3.546875,8.25 -3.53125,2.734375 -10.75,2.734375 z M 9.8125,72.90625 h 25.203125 q 11.28125,0 17.375,-4.6875 Q 58.5,63.53125 58.5,54.890625 58.5,48.1875 55.375,44.234375 52.25,40.28125 46.1875,39.3125 53.46875,37.75 57.5,32.78125 q 4.03125,-4.953125 4.03125,-12.375 0,-9.765625 -6.640625,-15.09375 Q 48.25,0 35.984375,0 H 9.8125 Z"
       id="DejaVuSans-42" />
    <path
       inkscape:connector-curvature="0"
       d="M 19.671875,64.796875 V 8.109375 H 31.59375 q 15.09375,0 22.09375,6.828125 7,6.84375 7,21.59375 0,14.640625 -7,21.453125 -7,6.8125 -22.09375,6.8125 z M 9.8125,72.90625 h 20.265625 q 21.1875,0 31.09375,-8.8125 9.921875,-8.8125 9.921875,-27.5625 0,-18.859375 -9.96875,-27.703125 Q 51.171875,0 30.078125,0 H 9.8125 Z"
       id="DejaVuSans-44" />
    <path
       inkscape:connector-curvature="0"
       d=""
       id="DejaVuSans-20" />
    <path
       inkscape:connector-curvature="0"
       d="m 9.8125,72.90625 h 46.09375 v -8.3125 H 19.671875 V 43.015625 h 34.71875 V 34.71875 H 19.671875 V 8.296875 H 56.78125 V 0 H 9.8125 Z"
       id="DejaVuSans-45" />
    <path
       inkscape:connector-curvature="0"
       d="m 34.28125,27.484375 q -10.890625,0 -15.09375,-2.484375 -4.203125,-2.484375 -4.203125,-8.5 0,-4.78125 3.15625,-7.59375 3.15625,-2.796875 8.5625,-2.796875 7.484375,0 12,5.296875 4.515625,5.296875 4.515625,14.078125 v 2 z m 17.921875,3.71875 V 0 H 43.21875 v 8.296875 q -3.078125,-4.96875 -7.671875,-7.34375 -4.59375,-2.375 -11.234375,-2.375 -8.390625,0 -13.359375,4.71875 Q 6,8.015625 6,15.921875 q 0,9.21875 6.171875,13.90625 6.1875,4.6875 18.4375,4.6875 H 43.21875 v 0.890625 q 0,6.203125 -4.078125,9.59375 -4.078125,3.390625 -11.453125,3.390625 -4.6875,0 -9.140625,-1.125 -4.4375,-1.125 -8.53125,-3.375 v 8.3125 q 4.921875,1.90625 9.5625,2.84375 Q 24.21875,56 28.609375,56 q 11.875,0 17.734375,-6.15625 5.859375,-6.140625 5.859375,-18.640625 z"
       id="DejaVuSans-61" />
    <path
       inkscape:connector-curvature="0"
       d="m 41.109375,46.296875 q -1.515625,0.875 -3.296875,1.28125 Q 36.03125,48 33.890625,48 26.265625,48 22.1875,43.046875 18.109375,38.09375 18.109375,28.8125 V 0 h -9.03125 v 54.6875 h 9.03125 v -8.5 q 2.84375,4.984375 7.375,7.390625 Q 30.03125,56 36.53125,56 q 0.921875,0 2.046875,-0.125 1.125,-0.109375 2.484375,-0.359375 z"
       id="DejaVuSans-72" />
    <path
       inkscape:connector-curvature="0"
       d="M 9.421875,75.984375 H 18.40625 V 0 H 9.421875 Z"
       id="DejaVuSans-6c" />
    <path
       inkscape:connector-curvature="0"
       d="M 32.171875,-5.078125 Q 28.375,-14.84375 24.75,-17.8125 q -3.609375,-2.984375 -9.65625,-2.984375 h -7.1875 v 7.515625 h 5.28125 q 3.703125,0 5.75,1.765625 2.0625,1.75 4.546875,8.296875 L 25.09375,0.875 2.984375,54.6875 H 12.5 L 29.59375,11.921875 46.6875,54.6875 h 9.515625 z"
       id="DejaVuSans-79" />
    <path
       inkscape:connector-curvature="0"
       d="M 9.8125,72.90625 H 24.515625 L 43.109375,23.296875 61.8125,72.90625 H 76.515625 V 0 h -9.625 v 64.015625 l -18.796875,-50 H 38.1875 l -18.796875,50 V 0 H 9.8125 Z"
       id="DejaVuSans-4d" />
    <path
       inkscape:connector-curvature="0"
       d="M 9.421875,54.6875 H 18.40625 V 0 H 9.421875 Z m 0,21.296875 H 18.40625 V 64.59375 H 9.421875 Z"
       id="DejaVuSans-69" />
    <path
       inkscape:connector-curvature="0"
       d="m 45.40625,46.390625 v 29.59375 h 8.984375 V 0 H 45.40625 v 8.203125 q -2.828125,-4.875 -7.15625,-7.25 -4.3125,-2.375 -10.375,-2.375 -9.90625,0 -16.140625,7.90625 -6.21875,7.921875 -6.21875,20.8125 0,12.890625 6.21875,20.796875 Q 17.96875,56 27.875,56 q 6.0625,0 10.375,-2.375 4.328125,-2.359375 7.15625,-7.234375 z M 14.796875,27.296875 q 0,-9.90625 4.078125,-15.546875 4.078125,-5.640625 11.203125,-5.640625 7.125,0 11.21875,5.640625 4.109375,5.640625 4.109375,15.546875 0,9.90625 -4.109375,15.546875 -4.09375,5.640625 -11.21875,5.640625 -7.125,0 -11.203125,-5.640625 -4.078125,-5.640625 -4.078125,-15.546875 z"
       id="DejaVuSans-64" />
    <path
       inkscape:connector-curvature="0"
       d="m 9.8125,72.90625 h 9.859375 V 8.296875 h 35.5 V 0 H 9.8125 Z"
       id="DejaVuSans-4c" />
    <path
       inkscape:connector-curvature="0"
       d="M 18.3125,70.21875 V 54.6875 h 18.5 v -6.984375 h -18.5 v -29.6875 q 0,-6.6875 1.828125,-8.59375 1.828125,-1.90625 7.453125,-1.90625 H 36.8125 V 0 H 27.59375 Q 17.1875,0 13.234375,3.875 9.28125,7.765625 9.28125,18.015625 v 29.6875 H 2.6875 V 54.6875 h 6.59375 v 15.53125 z"
       id="DejaVuSans-74" />
    <path
       inkscape:connector-curvature="0"
       d="m 56.203125,29.59375 v -4.390625 h -41.3125 q 0.59375,-9.28125 5.59375,-14.140625 5,-4.859375 13.9375,-4.859375 5.171875,0 10.03125,1.265625 4.859375,1.265625 9.65625,3.8125 v -8.5 q -4.84375,-2.046875 -9.921875,-3.125 -5.078125,-1.078125 -10.296875,-1.078125 -13.09375,0 -20.734375,7.609375 -7.640625,7.625 -7.640625,20.625 0,13.421875 7.25,21.296875 Q 20.015625,56 32.328125,56 q 11.03125,0 17.453125,-7.109375 6.421875,-7.09375 6.421875,-19.296875 z m -8.984375,2.640625 q -0.09375,7.359375 -4.125,11.75 -4.03125,4.40625 -10.671875,4.40625 -7.515625,0 -12.03125,-4.25 -4.515625,-4.25 -5.203125,-11.96875 z"
       id="DejaVuSans-65" />
    <path
       inkscape:connector-curvature="0"
       d="m 30.609375,48.390625 q -7.21875,0 -11.421875,-5.640625 -4.203125,-5.640625 -4.203125,-15.453125 0,-9.8125 4.171875,-15.453125 4.1875,-5.640625 11.453125,-5.640625 7.1875,0 11.375,5.65625 4.203125,5.671875 4.203125,15.4375 0,9.71875 -4.203125,15.40625 -4.1875,5.6875 -11.375,5.6875 z m 0,7.609375 q 11.71875,0 18.40625,-7.625 6.703125,-7.609375 6.703125,-21.078125 0,-13.421875 -6.703125,-21.078125 -6.6875,-7.640625 -18.40625,-7.640625 -11.765625,0 -18.4375,7.640625 -6.65625,7.65625 -6.65625,21.078125 0,13.46875 6.65625,21.078125 Q 18.84375,56 30.609375,56 Z"
       id="DejaVuSans-6f" />
    <path
       inkscape:connector-curvature="0"
       d="m 31.78125,66.40625 q -7.609375,0 -11.453125,-7.5 Q 16.5,51.421875 16.5,36.375 q 0,-14.984375 3.828125,-22.484375 3.84375,-7.5 11.453125,-7.5 7.671875,0 11.5,7.5 3.84375,7.5 3.84375,22.484375 0,15.046875 -3.84375,22.53125 -3.828125,7.5 -11.5,7.5 z m 0,7.8125 q 12.265625,0 18.734375,-9.703125 6.46875,-9.6875 6.46875,-28.140625 0,-18.40625 -6.46875,-28.109375 -6.46875,-9.6875 -18.734375,-9.6875 -12.25,0 -18.71875,9.6875 Q 6.59375,17.96875 6.59375,36.375 q 0,18.453125 6.46875,28.140625 6.46875,9.703125 18.71875,9.703125 z"
       id="DejaVuSans-30" />
    <path
       inkscape:connector-curvature="0"
       d="M 19.1875,8.296875 H 53.609375 V 0 H 7.328125 v 8.296875 q 5.609375,5.8125 15.296875,15.59375 9.703125,9.796875 12.1875,12.640625 4.734375,5.3125 6.609375,9 1.890625,3.6875 1.890625,7.25 0,5.8125 -4.078125,9.46875 -4.078125,3.671875 -10.625,3.671875 -4.640625,0 -9.796875,-1.609375 -5.140625,-1.609375 -11,-4.890625 v 9.96875 Q 13.765625,71.78125 18.9375,73 q 5.1875,1.21875 9.484375,1.21875 11.328125,0 18.0625,-5.671875 6.734375,-5.65625 6.734375,-15.125 0,-4.5 -1.6875,-8.53125 Q 49.859375,40.875 45.40625,35.40625 44.1875,33.984375 37.640625,27.21875 31.109375,20.453125 19.1875,8.296875 Z"
       id="DejaVuSans-32" />
    <path
       inkscape:connector-curvature="0"
       d="m 10.796875,72.90625 h 38.71875 v -8.3125 h -29.6875 V 46.734375 q 2.140625,0.734375 4.28125,1.09375 2.15625,0.359375 4.3125,0.359375 Q 40.625,48.1875 47.75,41.5 54.890625,34.8125 54.890625,23.390625 54.890625,11.625 47.5625,5.09375 40.234375,-1.421875 26.90625,-1.421875 q -4.59375,0 -9.359375,0.78125 -4.75,0.78125 -9.828125,2.34375 V 11.625 q 4.390625,-2.390625 9.078125,-3.5625 4.6875,-1.171875 9.90625,-1.171875 8.453125,0 13.375,4.4375 4.9375,4.4375 4.9375,12.0625 0,7.609375 -4.9375,12.046875 -4.921875,4.453125 -13.375,4.453125 -3.953125,0 -7.890625,-0.875 -3.921875,-0.875 -8.015625,-2.734375 z"
       id="DejaVuSans-35" />
    <path
       inkscape:connector-curvature="0"
       d="m 8.203125,72.90625 h 46.875 V 68.703125 L 28.609375,0 H 18.3125 L 43.21875,64.59375 H 8.203125 Z"
       id="DejaVuSans-37" />
    <path
       inkscape:connector-curvature="0"
       d="m 12.40625,8.296875 h 16.109375 v 55.625 L 10.984375,60.40625 v 8.984375 l 17.4375,3.515625 H 38.28125 V 8.296875 H 54.390625 V 0 H 12.40625 Z"
       id="DejaVuSans-31" />
    <path
       inkscape:connector-curvature="0"
       d="m 53.515625,70.515625 v -9.625 q -5.609375,2.6875 -10.59375,4 -4.984375,1.328125 -9.625,1.328125 -8.046875,0 -12.421875,-3.125 -4.375,-3.125 -4.375,-8.890625 0,-4.84375 2.90625,-7.3125 2.90625,-2.453125 11.015625,-3.96875 L 36.375,41.703125 Q 47.40625,39.59375 52.65625,34.296875 57.90625,29 57.90625,20.125 q 0,-10.609375 -7.109375,-16.078125 -7.09375,-5.46875 -20.8125,-5.46875 -5.171875,0 -11.015625,1.171875 Q 13.140625,0.921875 6.890625,3.21875 V 13.375 q 6,-3.359375 11.765625,-5.078125 5.765625,-1.703125 11.328125,-1.703125 8.4375,0 13.03125,3.3125 4.59375,3.328125 4.59375,9.484375 0,5.359375 -3.296875,8.390625 Q 41.015625,30.8125 33.5,32.328125 L 27.484375,33.5 q -11.03125,2.1875 -15.96875,6.875 -4.921875,4.6875 -4.921875,13.046875 0,9.671875 6.8125,15.234375 6.8125,5.5625 18.765625,5.5625 5.140625,0 10.453125,-0.9375 5.328125,-0.921875 10.890625,-2.765625 z"
       id="DejaVuSans-53" />
    <path
       inkscape:connector-curvature="0"
       d="m 18.109375,8.203125 v -29 H 9.078125 V 54.6875 h 9.03125 v -8.296875 q 2.84375,4.875 7.15625,7.234375 Q 29.59375,56 35.59375,56 q 9.96875,0 16.1875,-7.90625 6.234375,-7.90625 6.234375,-20.796875 0,-12.890625 -6.234375,-20.8125 -6.21875,-7.90625 -16.1875,-7.90625 -6,0 -10.328125,2.375 -4.3125,2.375 -7.15625,7.25 z M 48.6875,27.296875 q 0,9.90625 -4.078125,15.546875 -4.078125,5.640625 -11.203125,5.640625 -7.140625,0 -11.21875,-5.640625 -4.078125,-5.640625 -4.078125,-15.546875 0,-9.90625 4.078125,-15.546875 4.078125,-5.640625 11.21875,-5.640625 7.125,0 11.203125,5.640625 4.078125,5.640625 4.078125,15.546875 z"
       id="DejaVuSans-70" />
    <path
       inkscape:connector-curvature="0"
       d="M 31,75.875 Q 24.46875,64.65625 21.28125,53.65625 18.109375,42.671875 18.109375,31.390625 18.109375,20.125 21.3125,9.0625 24.515625,-2 31,-13.1875 H 23.1875 Q 15.875,-1.703125 12.234375,9.375 8.59375,20.453125 8.59375,31.390625 q 0,10.890625 3.609375,21.921875 3.625,11.046875 10.984375,22.5625 z"
       id="DejaVuSans-28" />
    <path
       inkscape:connector-curvature="0"
       d="m 9.8125,72.90625 h 41.890625 v -8.3125 H 19.671875 V 43.109375 h 28.90625 V 34.8125 H 19.671875 V 0 H 9.8125 Z"
       id="DejaVuSans-46" />
    <path
       inkscape:connector-curvature="0"
       d="M 19.671875,64.796875 V 37.40625 h 12.40625 q 6.890625,0 10.640625,3.5625 3.765625,3.5625 3.765625,10.15625 0,6.546875 -3.765625,10.109375 -3.75,3.5625 -10.640625,3.5625 z M 9.8125,72.90625 h 22.265625 q 12.265625,0 18.53125,-5.546875 6.28125,-5.546875 6.28125,-16.234375 0,-10.796875 -6.28125,-16.3125 -6.265625,-5.515625 -18.53125,-5.515625 H 19.671875 V 0 H 9.8125 Z"
       id="DejaVuSans-50" />
    <path
       inkscape:connector-curvature="0"
       d="m 8.015625,75.875 h 7.8125 q 7.3125,-11.515625 10.953125,-22.5625 3.640625,-11.03125 3.640625,-21.921875 0,-10.9375 -3.640625,-22.015625 -3.640625,-11.078125 -10.953125,-22.5625 h -7.8125 Q 14.5,-2 17.703125,9.0625 20.90625,20.125 20.90625,31.390625 q 0,11.28125 -3.203125,22.265625 -3.203125,11 -9.6875,22.21875 z"
       id="DejaVuSans-29" />
    <path
       inkscape:connector-curvature="0"
       d="m 8.6875,72.90625 h 9.921875 V 28.609375 q 0,-11.71875 4.234375,-16.875 4.25,-5.140625 13.78125,-5.140625 9.46875,0 13.71875,5.140625 4.25,5.15625 4.25,16.875 V 72.90625 H 64.5 V 27.390625 q 0,-14.25 -7.0625,-21.53125 -7.046875,-7.28125 -20.8125,-7.28125 -13.828125,0 -20.890625,7.28125 Q 8.6875,13.140625 8.6875,27.390625 Z"
       id="DejaVuSans-55" />
    <path
       inkscape:connector-curvature="0"
       d="M 10.59375,45.40625 H 73.1875 V 37.203125 H 10.59375 Z m 0,-19.921875 H 73.1875 V 17.1875 H 10.59375 Z"
       id="DejaVuSans-3d" />
    <path
       inkscape:connector-curvature="0"
       d="M -0.296875,72.90625 H 61.375 v -8.3125 H 35.5 V 0 H 25.59375 V 64.59375 H -0.296875 Z"
       id="DejaVuSans-54" />
    <path
       inkscape:connector-curvature="0"
       d="m 6.296875,72.90625 h 10.59375 L 35.015625,45.796875 53.21875,72.90625 H 63.8125 L 40.375,37.890625 65.375,0 H 54.78125 l -20.5,31 L 13.625,0 H 2.984375 L 29,38.921875 Z"
       id="DejaVuSans-58" />
    <path
       inkscape:connector-curvature="0"
       d="m 31.78125,34.625 q -7.03125,0 -11.0625,-3.765625 -4.015625,-3.765625 -4.015625,-10.34375 0,-6.59375 4.015625,-10.359375 4.03125,-3.765625 11.0625,-3.765625 7.03125,0 11.078125,3.78125 4.0625,3.796875 4.0625,10.34375 0,6.578125 -4.03125,10.34375 Q 38.875,34.625 31.78125,34.625 Z m -9.859375,4.1875 Q 15.578125,40.375 12.03125,44.71875 8.5,49.078125 8.5,55.328125 q 0,8.734375 6.21875,13.8125 6.234375,5.078125 17.0625,5.078125 10.890625,0 17.09375,-5.078125 6.203125,-5.078125 6.203125,-13.8125 0,-6.25 -3.546875,-10.609375 Q 48,40.375 41.703125,38.8125 q 7.125,-1.65625 11.09375,-6.5 3.984375,-4.828125 3.984375,-11.796875 0,-10.609375 -6.46875,-16.28125 -6.46875,-5.65625 -18.53125,-5.65625 -12.046875,0 -18.53125,5.65625 -6.46875,5.671875 -6.46875,16.28125 0,6.96875 4,11.796875 4.015625,4.84375 11.140625,6.5 z M 18.3125,54.390625 q 0,-5.65625 3.53125,-8.828125 3.546875,-3.171875 9.9375,-3.171875 6.359375,0 9.9375,3.171875 3.59375,3.171875 3.59375,8.828125 0,5.671875 -3.59375,8.84375 -3.578125,3.171875 -9.9375,3.171875 -6.390625,0 -9.9375,-3.171875 Q 18.3125,60.0625 18.3125,54.390625 Z"
       id="DejaVuSans-38" />
    <path
       inkscape:connector-curvature="0"
       d="M 37.796875,64.3125 12.890625,25.390625 h 24.90625 z m -2.59375,8.59375 h 12.40625 V 25.390625 h 10.40625 V 17.1875 H 47.609375 V 0 h -9.8125 V 17.1875 H 4.890625 v 9.515625 z"
       id="DejaVuSans-34" />
    <path
       inkscape:connector-curvature="0"
       d="m 33.015625,40.375 q -6.640625,0 -10.53125,-4.546875 -3.875,-4.53125 -3.875,-12.4375 0,-7.859375 3.875,-12.4375 3.890625,-4.5625 10.53125,-4.5625 6.640625,0 10.515625,4.5625 3.875,4.578125 3.875,12.4375 0,7.90625 -3.875,12.4375 Q 39.65625,40.375 33.015625,40.375 Z M 52.59375,71.296875 V 62.3125 q -3.71875,1.75 -7.5,2.671875 -3.78125,0.9375 -7.5,0.9375 -9.765625,0 -14.921875,-6.59375 -5.140625,-6.59375 -5.875,-19.921875 2.875,4.25 7.21875,6.515625 4.359375,2.265625 9.578125,2.265625 10.984375,0 17.359375,-6.671875 6.375,-6.65625 6.375,-18.125 0,-11.234375 -6.640625,-18.03125 -6.640625,-6.78125 -17.671875,-6.78125 -12.65625,0 -19.34375,9.6875 -6.6875,9.703125 -6.6875,28.109375 0,17.28125 8.203125,27.5625 8.203125,10.28125 22.015625,10.28125 3.71875,0 7.5,-0.734375 3.78125,-0.734375 7.890625,-2.1875 z"
       id="DejaVuSans-36" />
    <path
       inkscape:connector-curvature="0"
       d="m 9.8125,72.90625 h 9.859375 V 5.078125 q 0,-13.1875 -5,-19.140625 -5,-5.953125 -16.09375,-5.953125 h -3.75 v 8.296875 h 3.078125 q 6.53125,0 9.21875,3.671875 2.6875,3.65625 2.6875,13.125 z"
       id="DejaVuSans-4a" />
    <path
       inkscape:connector-curvature="0"
       d="m 44.28125,53.078125 v -8.5 Q 40.484375,46.53125 36.375,47.5 q -4.09375,0.984375 -8.5,0.984375 -6.6875,0 -10.03125,-2.046875 Q 14.5,44.390625 14.5,40.28125 q 0,-3.125 2.390625,-4.90625 2.390625,-1.78125 9.625,-3.390625 l 3.078125,-0.6875 Q 39.15625,29.25 43.1875,25.515625 47.21875,21.78125 47.21875,15.09375 q 0,-7.625 -6.03125,-12.078125 -6.03125,-4.4375 -16.578125,-4.4375 -4.390625,0 -9.15625,0.859375 Q 10.6875,0.296875 5.421875,2 v 9.28125 q 4.984375,-2.59375 9.8125,-3.890625 4.828125,-1.28125 9.578125,-1.28125 6.34375,0 9.75,2.171875 3.421875,2.171875 3.421875,6.125 0,3.65625 -2.46875,5.609375 -2.453125,1.953125 -10.8125,3.765625 l -3.125,0.734375 q -8.34375,1.75 -12.0625,5.390625 -3.703125,3.640625 -3.703125,9.984375 0,7.71875 5.46875,11.90625 Q 16.75,56 26.8125,56 q 4.96875,0 9.359375,-0.734375 4.40625,-0.71875 8.109375,-2.1875 z"
       id="DejaVuSans-73" />
    <path
       inkscape:connector-curvature="0"
       d="M 54.890625,33.015625 V 0 H 45.90625 v 32.71875 q 0,7.765625 -3.03125,11.609375 -3.03125,3.859375 -9.078125,3.859375 -7.28125,0 -11.484375,-4.640625 -4.203125,-4.625 -4.203125,-12.640625 V 0 h -9.03125 v 54.6875 h 9.03125 v -8.5 q 3.234375,4.9375 7.59375,7.375 4.375,2.4375 10.09375,2.4375 9.421875,0 14.25,-5.828125 4.84375,-5.828125 4.84375,-17.15625 z"
       id="DejaVuSans-6e" />
    <clipPath
       id="p5e86a32d48-5">
      <rect
         height="291.29999"
         width="579.42499"
         x="111.03"
         y="50.639999"
         id="rect1921-6" />
    </clipPath>
    <clipPath
       id="clipPath6194-3">
      <rect
         height="291.29999"
         width="579.42499"
         x="111.03"
         y="50.639999"
         id="rect6192-0" />
    </clipPath>
    <clipPath
       id="clipPath6198-6">
      <rect
         height="291.29999"
         width="579.42499"
         x="111.03"
         y="50.639999"
         id="rect6196-2" />
    </clipPath>
    <clipPath
       id="clipPath6202-2">
      <rect
         height="291.29999"
         width="579.42499"
         x="111.03"
         y="50.639999"
         id="rect6200-8" />
    </clipPath>
    <clipPath
       id="clipPath6206-0">
      <rect
         height="291.29999"
         width="579.42499"
         x="111.03"
         y="50.639999"
         id="rect6204-2" />
    </clipPath>
    <clipPath
       id="clipPath6210-1">
      <rect
         height="291.29999"
         width="579.42499"
         x="111.03"
         y="50.639999"
         id="rect6208-6" />
    </clipPath>
    <clipPath
       id="clipPath6214-2">
      <rect
         height="291.29999"
         width="579.42499"
         x="111.03"
         y="50.639999"
         id="rect6212-5" />
    </clipPath>
    <clipPath
       id="clipPath6218-0">
      <rect
         height="291.29999"
         width="579.42499"
         x="111.03"
         y="50.639999"
         id="rect6216-0" />
    </clipPath>
    <clipPath
       id="clipPath6222-2">
      <rect
         height="291.29999"
         width="579.42499"
         x="111.03"
         y="50.639999"
         id="rect6220-8" />
    </clipPath>
    <clipPath
       id="clipPath6226-5">
      <rect
         height="291.29999"
         width="579.42499"
         x="111.03"
         y="50.639999"
         id="rect6224-9" />
    </clipPath>
    <clipPath
       id="clipPath6230-4">
      <rect
         height="291.29999"
         width="579.42499"
         x="111.03"
         y="50.639999"
         id="rect6228-0" />
    </clipPath>
    <clipPath
       id="clipPath6234-0">
      <rect
         height="291.29999"
         width="579.42499"
         x="111.03"
         y="50.639999"
         id="rect6232-5" />
    </clipPath>
    <clipPath
       id="clipPath6238-9">
      <rect
         height="291.29999"
         width="579.42499"
         x="111.03"
         y="50.639999"
         id="rect6236-4" />
    </clipPath>
    <clipPath
       id="clipPath6242-5">
      <rect
         height="291.29999"
         width="579.42499"
         x="111.03"
         y="50.639999"
         id="rect6240-3" />
    </clipPath>
    <clipPath
       id="p94ea90e9ab-1">
      <rect
         height="291.29999"
         width="579.42499"
         x="768.41498"
         y="50.639999"
         id="rect1924-9" />
    </clipPath>
    <clipPath
       id="clipPath6248-8">
      <rect
         height="291.29999"
         width="579.42499"
         x="768.41498"
         y="50.639999"
         id="rect6246-5" />
    </clipPath>
    <clipPath
       id="clipPath6252-2">
      <rect
         height="291.29999"
         width="579.42499"
         x="768.41498"
         y="50.639999"
         id="rect6250-2" />
    </clipPath>
    <clipPath
       id="clipPath6256-1">
      <rect
         height="291.29999"
         width="579.42499"
         x="768.41498"
         y="50.639999"
         id="rect6254-2" />
    </clipPath>
    <clipPath
       id="clipPath6260-9">
      <rect
         height="291.29999"
         width="579.42499"
         x="768.41498"
         y="50.639999"
         id="rect6258-5" />
    </clipPath>
    <clipPath
       id="clipPath6264-7">
      <rect
         height="291.29999"
         width="579.42499"
         x="768.41498"
         y="50.639999"
         id="rect6262-2" />
    </clipPath>
    <clipPath
       id="clipPath6268-7">
      <rect
         height="291.29999"
         width="579.42499"
         x="768.41498"
         y="50.639999"
         id="rect6266-7" />
    </clipPath>
    <clipPath
       id="clipPath6272-9">
      <rect
         height="291.29999"
         width="579.42499"
         x="768.41498"
         y="50.639999"
         id="rect6270-2" />
    </clipPath>
    <clipPath
       id="clipPath6276-9">
      <rect
         height="291.29999"
         width="579.42499"
         x="768.41498"
         y="50.639999"
         id="rect6274-1" />
    </clipPath>
    <clipPath
       id="clipPath6280-1">
      <rect
         height="291.29999"
         width="579.42499"
         x="768.41498"
         y="50.639999"
         id="rect6278-4" />
    </clipPath>
    <clipPath
       id="clipPath6284-8">
      <rect
         height="291.29999"
         width="579.42499"
         x="768.41498"
         y="50.639999"
         id="rect6282-0" />
    </clipPath>
    <clipPath
       id="clipPath6288-5">
      <rect
         height="291.29999"
         width="579.42499"
         x="768.41498"
         y="50.639999"
         id="rect6286-8" />
    </clipPath>
    <clipPath
       id="clipPath6292-0">
      <rect
         height="291.29999"
         width="579.42499"
         x="768.41498"
         y="50.639999"
         id="rect6290-5" />
    </clipPath>
    <clipPath
       id="clipPath6296-5">
      <rect
         height="291.29999"
         width="579.42499"
         x="768.41498"
         y="50.639999"
         id="rect6294-1" />
    </clipPath>
    <path
       inkscape:connector-curvature="0"
       d="m 44.390625,34.1875 q 3.171875,-1.078125 6.171875,-4.59375 3,-3.515625 6.03125,-9.671875 L 66.609375,0 H 56 l -9.3125,18.703125 q -3.625,7.328125 -7.015625,9.71875 -3.390625,2.390625 -9.25,2.390625 h -10.75 V 0 H 9.8125 v 72.90625 h 22.265625 q 12.5,0 18.65625,-5.234375 6.15625,-5.21875 6.15625,-15.765625 0,-6.890625 -3.203125,-11.4375 -3.203125,-4.53125 -9.296875,-6.28125 z m -24.71875,30.609375 v -25.875 h 12.40625 q 7.125,0 10.765625,3.296875 3.640625,3.296875 3.640625,9.6875 0,6.390625 -3.640625,9.640625 -3.640625,3.25 -10.765625,3.25 z"
       id="DejaVuSans-52-6" />
    <path
       inkscape:connector-curvature="0"
       d="M 59.515625,10.40625 V 29.984375 H 43.40625 v 8.109375 h 25.875 V 6.78125 Q 63.578125,2.734375 56.6875,0.65625 49.8125,-1.421875 42,-1.421875 q -17.09375,0 -26.75,9.984375 -9.640625,10 -9.640625,27.8125 0,17.875 9.640625,27.859375 9.65625,9.984375 26.75,9.984375 7.125,0 13.546875,-1.765625 6.421875,-1.75 11.84375,-5.171875 v -10.5 q -5.46875,4.640625 -11.625,6.984375 -6.15625,2.34375 -12.9375,2.34375 -13.390625,0 -20.109375,-7.46875 -6.703125,-7.46875 -6.703125,-22.265625 0,-14.75 6.703125,-22.21875 6.71875,-7.46875 20.109375,-7.46875 5.21875,0 9.3125,0.90625 4.109375,0.90625 7.375,2.8125 z"
       id="DejaVuSans-47-4" />
    <path
       inkscape:connector-curvature="0"
       d="M 19.671875,34.8125 V 8.109375 H 35.5 q 7.953125,0 11.78125,3.296875 3.84375,3.296875 3.84375,10.078125 0,6.84375 -3.84375,10.078125 -3.828125,3.25 -11.78125,3.25 z m 0,29.984375 V 42.828125 H 34.28125 q 7.21875,0 10.75,2.703125 3.546875,2.71875 3.546875,8.28125 0,5.515625 -3.546875,8.25 -3.53125,2.734375 -10.75,2.734375 z M 9.8125,72.90625 h 25.203125 q 11.28125,0 17.375,-4.6875 Q 58.5,63.53125 58.5,54.890625 58.5,48.1875 55.375,44.234375 52.25,40.28125 46.1875,39.3125 53.46875,37.75 57.5,32.78125 q 4.03125,-4.953125 4.03125,-12.375 0,-9.765625 -6.640625,-15.09375 Q 48.25,0 35.984375,0 H 9.8125 Z"
       id="DejaVuSans-42-5" />
    <path
       inkscape:connector-curvature="0"
       d="M 19.671875,64.796875 V 8.109375 H 31.59375 q 15.09375,0 22.09375,6.828125 7,6.84375 7,21.59375 0,14.640625 -7,21.453125 -7,6.8125 -22.09375,6.8125 z M 9.8125,72.90625 h 20.265625 q 21.1875,0 31.09375,-8.8125 9.921875,-8.8125 9.921875,-27.5625 0,-18.859375 -9.96875,-27.703125 Q 51.171875,0 30.078125,0 H 9.8125 Z"
       id="DejaVuSans-44-6" />
    <path
       inkscape:connector-curvature="0"
       d=""
       id="DejaVuSans-20-1" />
    <path
       inkscape:connector-curvature="0"
       d="m 9.8125,72.90625 h 46.09375 v -8.3125 H 19.671875 V 43.015625 h 34.71875 V 34.71875 H 19.671875 V 8.296875 H 56.78125 V 0 H 9.8125 Z"
       id="DejaVuSans-45-4" />
    <path
       inkscape:connector-curvature="0"
       d="m 34.28125,27.484375 q -10.890625,0 -15.09375,-2.484375 -4.203125,-2.484375 -4.203125,-8.5 0,-4.78125 3.15625,-7.59375 3.15625,-2.796875 8.5625,-2.796875 7.484375,0 12,5.296875 4.515625,5.296875 4.515625,14.078125 v 2 z m 17.921875,3.71875 V 0 H 43.21875 v 8.296875 q -3.078125,-4.96875 -7.671875,-7.34375 -4.59375,-2.375 -11.234375,-2.375 -8.390625,0 -13.359375,4.71875 Q 6,8.015625 6,15.921875 q 0,9.21875 6.171875,13.90625 6.1875,4.6875 18.4375,4.6875 H 43.21875 v 0.890625 q 0,6.203125 -4.078125,9.59375 -4.078125,3.390625 -11.453125,3.390625 -4.6875,0 -9.140625,-1.125 -4.4375,-1.125 -8.53125,-3.375 v 8.3125 q 4.921875,1.90625 9.5625,2.84375 Q 24.21875,56 28.609375,56 q 11.875,0 17.734375,-6.15625 5.859375,-6.140625 5.859375,-18.640625 z"
       id="DejaVuSans-61-8" />
    <path
       inkscape:connector-curvature="0"
       d="m 41.109375,46.296875 q -1.515625,0.875 -3.296875,1.28125 Q 36.03125,48 33.890625,48 26.265625,48 22.1875,43.046875 18.109375,38.09375 18.109375,28.8125 V 0 h -9.03125 v 54.6875 h 9.03125 v -8.5 q 2.84375,4.984375 7.375,7.390625 Q 30.03125,56 36.53125,56 q 0.921875,0 2.046875,-0.125 1.125,-0.109375 2.484375,-0.359375 z"
       id="DejaVuSans-72-5" />
    <path
       inkscape:connector-curvature="0"
       d="M 9.421875,75.984375 H 18.40625 V 0 H 9.421875 Z"
       id="DejaVuSans-6c-7" />
    <path
       inkscape:connector-curvature="0"
       d="M 32.171875,-5.078125 Q 28.375,-14.84375 24.75,-17.8125 q -3.609375,-2.984375 -9.65625,-2.984375 h -7.1875 v 7.515625 h 5.28125 q 3.703125,0 5.75,1.765625 2.0625,1.75 4.546875,8.296875 L 25.09375,0.875 2.984375,54.6875 H 12.5 L 29.59375,11.921875 46.6875,54.6875 h 9.515625 z"
       id="DejaVuSans-79-0" />
    <path
       inkscape:connector-curvature="0"
       d="M 9.8125,72.90625 H 24.515625 L 43.109375,23.296875 61.8125,72.90625 H 76.515625 V 0 h -9.625 v 64.015625 l -18.796875,-50 H 38.1875 l -18.796875,50 V 0 H 9.8125 Z"
       id="DejaVuSans-4d-5" />
    <path
       inkscape:connector-curvature="0"
       d="M 9.421875,54.6875 H 18.40625 V 0 H 9.421875 Z m 0,21.296875 H 18.40625 V 64.59375 H 9.421875 Z"
       id="DejaVuSans-69-1" />
    <path
       inkscape:connector-curvature="0"
       d="m 45.40625,46.390625 v 29.59375 h 8.984375 V 0 H 45.40625 v 8.203125 q -2.828125,-4.875 -7.15625,-7.25 -4.3125,-2.375 -10.375,-2.375 -9.90625,0 -16.140625,7.90625 -6.21875,7.921875 -6.21875,20.8125 0,12.890625 6.21875,20.796875 Q 17.96875,56 27.875,56 q 6.0625,0 10.375,-2.375 4.328125,-2.359375 7.15625,-7.234375 z M 14.796875,27.296875 q 0,-9.90625 4.078125,-15.546875 4.078125,-5.640625 11.203125,-5.640625 7.125,0 11.21875,5.640625 4.109375,5.640625 4.109375,15.546875 0,9.90625 -4.109375,15.546875 -4.09375,5.640625 -11.21875,5.640625 -7.125,0 -11.203125,-5.640625 -4.078125,-5.640625 -4.078125,-15.546875 z"
       id="DejaVuSans-64-6" />
    <path
       inkscape:connector-curvature="0"
       d="m 9.8125,72.90625 h 9.859375 V 8.296875 h 35.5 V 0 H 9.8125 Z"
       id="DejaVuSans-4c-0" />
    <path
       inkscape:connector-curvature="0"
       d="M 18.3125,70.21875 V 54.6875 h 18.5 v -6.984375 h -18.5 v -29.6875 q 0,-6.6875 1.828125,-8.59375 1.828125,-1.90625 7.453125,-1.90625 H 36.8125 V 0 H 27.59375 Q 17.1875,0 13.234375,3.875 9.28125,7.765625 9.28125,18.015625 v 29.6875 H 2.6875 V 54.6875 h 6.59375 v 15.53125 z"
       id="DejaVuSans-74-2" />
    <path
       inkscape:connector-curvature="0"
       d="m 56.203125,29.59375 v -4.390625 h -41.3125 q 0.59375,-9.28125 5.59375,-14.140625 5,-4.859375 13.9375,-4.859375 5.171875,0 10.03125,1.265625 4.859375,1.265625 9.65625,3.8125 v -8.5 q -4.84375,-2.046875 -9.921875,-3.125 -5.078125,-1.078125 -10.296875,-1.078125 -13.09375,0 -20.734375,7.609375 -7.640625,7.625 -7.640625,20.625 0,13.421875 7.25,21.296875 Q 20.015625,56 32.328125,56 q 11.03125,0 17.453125,-7.109375 6.421875,-7.09375 6.421875,-19.296875 z m -8.984375,2.640625 q -0.09375,7.359375 -4.125,11.75 -4.03125,4.40625 -10.671875,4.40625 -7.515625,0 -12.03125,-4.25 -4.515625,-4.25 -5.203125,-11.96875 z"
       id="DejaVuSans-65-8" />
    <path
       inkscape:connector-curvature="0"
       d="m 30.609375,48.390625 q -7.21875,0 -11.421875,-5.640625 -4.203125,-5.640625 -4.203125,-15.453125 0,-9.8125 4.171875,-15.453125 4.1875,-5.640625 11.453125,-5.640625 7.1875,0 11.375,5.65625 4.203125,5.671875 4.203125,15.4375 0,9.71875 -4.203125,15.40625 -4.1875,5.6875 -11.375,5.6875 z m 0,7.609375 q 11.71875,0 18.40625,-7.625 6.703125,-7.609375 6.703125,-21.078125 0,-13.421875 -6.703125,-21.078125 -6.6875,-7.640625 -18.40625,-7.640625 -11.765625,0 -18.4375,7.640625 -6.65625,7.65625 -6.65625,21.078125 0,13.46875 6.65625,21.078125 Q 18.84375,56 30.609375,56 Z"
       id="DejaVuSans-6f-9" />
    <path
       inkscape:connector-curvature="0"
       d="m 31.78125,66.40625 q -7.609375,0 -11.453125,-7.5 Q 16.5,51.421875 16.5,36.375 q 0,-14.984375 3.828125,-22.484375 3.84375,-7.5 11.453125,-7.5 7.671875,0 11.5,7.5 3.84375,7.5 3.84375,22.484375 0,15.046875 -3.84375,22.53125 -3.828125,7.5 -11.5,7.5 z m 0,7.8125 q 12.265625,0 18.734375,-9.703125 6.46875,-9.6875 6.46875,-28.140625 0,-18.40625 -6.46875,-28.109375 -6.46875,-9.6875 -18.734375,-9.6875 -12.25,0 -18.71875,9.6875 Q 6.59375,17.96875 6.59375,36.375 q 0,18.453125 6.46875,28.140625 6.46875,9.703125 18.71875,9.703125 z"
       id="DejaVuSans-30-9" />
    <path
       inkscape:connector-curvature="0"
       d="M 19.1875,8.296875 H 53.609375 V 0 H 7.328125 v 8.296875 q 5.609375,5.8125 15.296875,15.59375 9.703125,9.796875 12.1875,12.640625 4.734375,5.3125 6.609375,9 1.890625,3.6875 1.890625,7.25 0,5.8125 -4.078125,9.46875 -4.078125,3.671875 -10.625,3.671875 -4.640625,0 -9.796875,-1.609375 -5.140625,-1.609375 -11,-4.890625 v 9.96875 Q 13.765625,71.78125 18.9375,73 q 5.1875,1.21875 9.484375,1.21875 11.328125,0 18.0625,-5.671875 6.734375,-5.65625 6.734375,-15.125 0,-4.5 -1.6875,-8.53125 Q 49.859375,40.875 45.40625,35.40625 44.1875,33.984375 37.640625,27.21875 31.109375,20.453125 19.1875,8.296875 Z"
       id="DejaVuSans-32-9" />
    <path
       inkscape:connector-curvature="0"
       d="m 10.796875,72.90625 h 38.71875 v -8.3125 h -29.6875 V 46.734375 q 2.140625,0.734375 4.28125,1.09375 2.15625,0.359375 4.3125,0.359375 Q 40.625,48.1875 47.75,41.5 54.890625,34.8125 54.890625,23.390625 54.890625,11.625 47.5625,5.09375 40.234375,-1.421875 26.90625,-1.421875 q -4.59375,0 -9.359375,0.78125 -4.75,0.78125 -9.828125,2.34375 V 11.625 q 4.390625,-2.390625 9.078125,-3.5625 4.6875,-1.171875 9.90625,-1.171875 8.453125,0 13.375,4.4375 4.9375,4.4375 4.9375,12.0625 0,7.609375 -4.9375,12.046875 -4.921875,4.453125 -13.375,4.453125 -3.953125,0 -7.890625,-0.875 -3.921875,-0.875 -8.015625,-2.734375 z"
       id="DejaVuSans-35-8" />
    <path
       inkscape:connector-curvature="0"
       d="m 8.203125,72.90625 h 46.875 V 68.703125 L 28.609375,0 H 18.3125 L 43.21875,64.59375 H 8.203125 Z"
       id="DejaVuSans-37-1" />
    <path
       inkscape:connector-curvature="0"
       d="m 12.40625,8.296875 h 16.109375 v 55.625 L 10.984375,60.40625 v 8.984375 l 17.4375,3.515625 H 38.28125 V 8.296875 H 54.390625 V 0 H 12.40625 Z"
       id="DejaVuSans-31-5" />
    <path
       inkscape:connector-curvature="0"
       d="m 53.515625,70.515625 v -9.625 q -5.609375,2.6875 -10.59375,4 -4.984375,1.328125 -9.625,1.328125 -8.046875,0 -12.421875,-3.125 -4.375,-3.125 -4.375,-8.890625 0,-4.84375 2.90625,-7.3125 2.90625,-2.453125 11.015625,-3.96875 L 36.375,41.703125 Q 47.40625,39.59375 52.65625,34.296875 57.90625,29 57.90625,20.125 q 0,-10.609375 -7.109375,-16.078125 -7.09375,-5.46875 -20.8125,-5.46875 -5.171875,0 -11.015625,1.171875 Q 13.140625,0.921875 6.890625,3.21875 V 13.375 q 6,-3.359375 11.765625,-5.078125 5.765625,-1.703125 11.328125,-1.703125 8.4375,0 13.03125,3.3125 4.59375,3.328125 4.59375,9.484375 0,5.359375 -3.296875,8.390625 Q 41.015625,30.8125 33.5,32.328125 L 27.484375,33.5 q -11.03125,2.1875 -15.96875,6.875 -4.921875,4.6875 -4.921875,13.046875 0,9.671875 6.8125,15.234375 6.8125,5.5625 18.765625,5.5625 5.140625,0 10.453125,-0.9375 5.328125,-0.921875 10.890625,-2.765625 z"
       id="DejaVuSans-53-7" />
    <path
       inkscape:connector-curvature="0"
       d="m 18.109375,8.203125 v -29 H 9.078125 V 54.6875 h 9.03125 v -8.296875 q 2.84375,4.875 7.15625,7.234375 Q 29.59375,56 35.59375,56 q 9.96875,0 16.1875,-7.90625 6.234375,-7.90625 6.234375,-20.796875 0,-12.890625 -6.234375,-20.8125 -6.21875,-7.90625 -16.1875,-7.90625 -6,0 -10.328125,2.375 -4.3125,2.375 -7.15625,7.25 z M 48.6875,27.296875 q 0,9.90625 -4.078125,15.546875 -4.078125,5.640625 -11.203125,5.640625 -7.140625,0 -11.21875,-5.640625 -4.078125,-5.640625 -4.078125,-15.546875 0,-9.90625 4.078125,-15.546875 4.078125,-5.640625 11.21875,-5.640625 7.125,0 11.203125,5.640625 4.078125,5.640625 4.078125,15.546875 z"
       id="DejaVuSans-70-7" />
    <path
       inkscape:connector-curvature="0"
       d="M 31,75.875 Q 24.46875,64.65625 21.28125,53.65625 18.109375,42.671875 18.109375,31.390625 18.109375,20.125 21.3125,9.0625 24.515625,-2 31,-13.1875 H 23.1875 Q 15.875,-1.703125 12.234375,9.375 8.59375,20.453125 8.59375,31.390625 q 0,10.890625 3.609375,21.921875 3.625,11.046875 10.984375,22.5625 z"
       id="DejaVuSans-28-2" />
    <path
       inkscape:connector-curvature="0"
       d="m 9.8125,72.90625 h 41.890625 v -8.3125 H 19.671875 V 43.109375 h 28.90625 V 34.8125 H 19.671875 V 0 H 9.8125 Z"
       id="DejaVuSans-46-0" />
    <path
       inkscape:connector-curvature="0"
       d="M 19.671875,64.796875 V 37.40625 h 12.40625 q 6.890625,0 10.640625,3.5625 3.765625,3.5625 3.765625,10.15625 0,6.546875 -3.765625,10.109375 -3.75,3.5625 -10.640625,3.5625 z M 9.8125,72.90625 h 22.265625 q 12.265625,0 18.53125,-5.546875 6.28125,-5.546875 6.28125,-16.234375 0,-10.796875 -6.28125,-16.3125 -6.265625,-5.515625 -18.53125,-5.515625 H 19.671875 V 0 H 9.8125 Z"
       id="DejaVuSans-50-0" />
    <path
       inkscape:connector-curvature="0"
       d="m 8.015625,75.875 h 7.8125 q 7.3125,-11.515625 10.953125,-22.5625 3.640625,-11.03125 3.640625,-21.921875 0,-10.9375 -3.640625,-22.015625 -3.640625,-11.078125 -10.953125,-22.5625 h -7.8125 Q 14.5,-2 17.703125,9.0625 20.90625,20.125 20.90625,31.390625 q 0,11.28125 -3.203125,22.265625 -3.203125,11 -9.6875,22.21875 z"
       id="DejaVuSans-29-3" />
    <path
       inkscape:connector-curvature="0"
       d="m 8.6875,72.90625 h 9.921875 V 28.609375 q 0,-11.71875 4.234375,-16.875 4.25,-5.140625 13.78125,-5.140625 9.46875,0 13.71875,5.140625 4.25,5.15625 4.25,16.875 V 72.90625 H 64.5 V 27.390625 q 0,-14.25 -7.0625,-21.53125 -7.046875,-7.28125 -20.8125,-7.28125 -13.828125,0 -20.890625,7.28125 Q 8.6875,13.140625 8.6875,27.390625 Z"
       id="DejaVuSans-55-0" />
    <path
       inkscape:connector-curvature="0"
       d="M 10.59375,45.40625 H 73.1875 V 37.203125 H 10.59375 Z m 0,-19.921875 H 73.1875 V 17.1875 H 10.59375 Z"
       id="DejaVuSans-3d-5" />
    <path
       inkscape:connector-curvature="0"
       d="M -0.296875,72.90625 H 61.375 v -8.3125 H 35.5 V 0 H 25.59375 V 64.59375 H -0.296875 Z"
       id="DejaVuSans-54-9" />
    <path
       inkscape:connector-curvature="0"
       d="m 6.296875,72.90625 h 10.59375 L 35.015625,45.796875 53.21875,72.90625 H 63.8125 L 40.375,37.890625 65.375,0 H 54.78125 l -20.5,31 L 13.625,0 H 2.984375 L 29,38.921875 Z"
       id="DejaVuSans-58-5" />
    <path
       inkscape:connector-curvature="0"
       d="m 31.78125,34.625 q -7.03125,0 -11.0625,-3.765625 -4.015625,-3.765625 -4.015625,-10.34375 0,-6.59375 4.015625,-10.359375 4.03125,-3.765625 11.0625,-3.765625 7.03125,0 11.078125,3.78125 4.0625,3.796875 4.0625,10.34375 0,6.578125 -4.03125,10.34375 Q 38.875,34.625 31.78125,34.625 Z m -9.859375,4.1875 Q 15.578125,40.375 12.03125,44.71875 8.5,49.078125 8.5,55.328125 q 0,8.734375 6.21875,13.8125 6.234375,5.078125 17.0625,5.078125 10.890625,0 17.09375,-5.078125 6.203125,-5.078125 6.203125,-13.8125 0,-6.25 -3.546875,-10.609375 Q 48,40.375 41.703125,38.8125 q 7.125,-1.65625 11.09375,-6.5 3.984375,-4.828125 3.984375,-11.796875 0,-10.609375 -6.46875,-16.28125 -6.46875,-5.65625 -18.53125,-5.65625 -12.046875,0 -18.53125,5.65625 -6.46875,5.671875 -6.46875,16.28125 0,6.96875 4,11.796875 4.015625,4.84375 11.140625,6.5 z M 18.3125,54.390625 q 0,-5.65625 3.53125,-8.828125 3.546875,-3.171875 9.9375,-3.171875 6.359375,0 9.9375,3.171875 3.59375,3.171875 3.59375,8.828125 0,5.671875 -3.59375,8.84375 -3.578125,3.171875 -9.9375,3.171875 -6.390625,0 -9.9375,-3.171875 Q 18.3125,60.0625 18.3125,54.390625 Z"
       id="DejaVuSans-38-5" />
    <path
       inkscape:connector-curvature="0"
       d="M 37.796875,64.3125 12.890625,25.390625 h 24.90625 z m -2.59375,8.59375 h 12.40625 V 25.390625 h 10.40625 V 17.1875 H 47.609375 V 0 h -9.8125 V 17.1875 H 4.890625 v 9.515625 z"
       id="DejaVuSans-34-5" />
    <path
       inkscape:connector-curvature="0"
       d="m 33.015625,40.375 q -6.640625,0 -10.53125,-4.546875 -3.875,-4.53125 -3.875,-12.4375 0,-7.859375 3.875,-12.4375 3.890625,-4.5625 10.53125,-4.5625 6.640625,0 10.515625,4.5625 3.875,4.578125 3.875,12.4375 0,7.90625 -3.875,12.4375 Q 39.65625,40.375 33.015625,40.375 Z M 52.59375,71.296875 V 62.3125 q -3.71875,1.75 -7.5,2.671875 -3.78125,0.9375 -7.5,0.9375 -9.765625,0 -14.921875,-6.59375 -5.140625,-6.59375 -5.875,-19.921875 2.875,4.25 7.21875,6.515625 4.359375,2.265625 9.578125,2.265625 10.984375,0 17.359375,-6.671875 6.375,-6.65625 6.375,-18.125 0,-11.234375 -6.640625,-18.03125 -6.640625,-6.78125 -17.671875,-6.78125 -12.65625,0 -19.34375,9.6875 -6.6875,9.703125 -6.6875,28.109375 0,17.28125 8.203125,27.5625 8.203125,10.28125 22.015625,10.28125 3.71875,0 7.5,-0.734375 3.78125,-0.734375 7.890625,-2.1875 z"
       id="DejaVuSans-36-3" />
    <path
       inkscape:connector-curvature="0"
       d="m 9.8125,72.90625 h 9.859375 V 5.078125 q 0,-13.1875 -5,-19.140625 -5,-5.953125 -16.09375,-5.953125 h -3.75 v 8.296875 h 3.078125 q 6.53125,0 9.21875,3.671875 2.6875,3.65625 2.6875,13.125 z"
       id="DejaVuSans-4a-3" />
    <path
       inkscape:connector-curvature="0"
       d="m 44.28125,53.078125 v -8.5 Q 40.484375,46.53125 36.375,47.5 q -4.09375,0.984375 -8.5,0.984375 -6.6875,0 -10.03125,-2.046875 Q 14.5,44.390625 14.5,40.28125 q 0,-3.125 2.390625,-4.90625 2.390625,-1.78125 9.625,-3.390625 l 3.078125,-0.6875 Q 39.15625,29.25 43.1875,25.515625 47.21875,21.78125 47.21875,15.09375 q 0,-7.625 -6.03125,-12.078125 -6.03125,-4.4375 -16.578125,-4.4375 -4.390625,0 -9.15625,0.859375 Q 10.6875,0.296875 5.421875,2 v 9.28125 q 4.984375,-2.59375 9.8125,-3.890625 4.828125,-1.28125 9.578125,-1.28125 6.34375,0 9.75,2.171875 3.421875,2.171875 3.421875,6.125 0,3.65625 -2.46875,5.609375 -2.453125,1.953125 -10.8125,3.765625 l -3.125,0.734375 q -8.34375,1.75 -12.0625,5.390625 -3.703125,3.640625 -3.703125,9.984375 0,7.71875 5.46875,11.90625 Q 16.75,56 26.8125,56 q 4.96875,0 9.359375,-0.734375 4.40625,-0.71875 8.109375,-2.1875 z"
       id="DejaVuSans-73-9" />
    <path
       inkscape:connector-curvature="0"
       d="M 54.890625,33.015625 V 0 H 45.90625 v 32.71875 q 0,7.765625 -3.03125,11.609375 -3.03125,3.859375 -9.078125,3.859375 -7.28125,0 -11.484375,-4.640625 -4.203125,-4.625 -4.203125,-12.640625 V 0 h -9.03125 v 54.6875 h 9.03125 v -8.5 q 3.234375,4.9375 7.59375,7.375 4.375,2.4375 10.09375,2.4375 9.421875,0 14.25,-5.828125 4.84375,-5.828125 4.84375,-17.15625 z"
       id="DejaVuSans-6e-8" />
  </defs>
  <sodipodi:namedview
     inkscape:guide-bbox="true"
     inkscape:snap-center="true"
     inkscape:snap-object-midpoints="true"
     inkscape:snap-bbox-midpoints="true"
     inkscape:bbox-nodes="true"
     inkscape:bbox-paths="true"
     inkscape:snap-bbox-edge-midpoints="true"
     inkscape:snap-bbox="true"
     inkscape:snap-nodes="false"
     inkscape:object-nodes="false"
     id="base"
     pagecolor="#ffffff"
     bordercolor="#666666"
     borderopacity="1.0"
     inkscape:pageopacity="1"
     inkscape:pageshadow="2"
     inkscape:zoom="1.8556875"
     inkscape:cx="324.94695"
     inkscape:cy="114.24337"
     inkscape:document-units="px"
     inkscape:current-layer="layer1"
     showgrid="false"
     inkscape:measure-start="25.8929,873.304"
     inkscape:measure-end="50,873.304"
     inkscape:window-width="1875"
     inkscape:window-height="1035"
     inkscape:window-x="45"
     inkscape:window-y="45"
     inkscape:window-maximized="1"
     inkscape:snap-global="true"
     inkscape:snap-intersection-paths="false"
     fit-margin-top="5"
     fit-margin-left="5"
     fit-margin-right="5"
     fit-margin-bottom="5"
     units="px"
     showguides="false"
     inkscape:document-rotation="0"
     lock-margins="true"
     inkscape:pagecheckerboard="false">
    <inkscape:grid
       originy="-21.166665"
       originx="-78.052089"
       id="grid1826"
       type="xygrid" />
    <sodipodi:guide
       id="guide2299"
       orientation="0,-1"
       position="78.522598,27.913532" />
  </sodipodi:namedview>
  <metadata
     id="metadata5">
    <rdf:RDF>
      <cc:Work
         rdf:about="">
        <dc:format>image/svg+xml</dc:format>
        <dc:type
           rdf:resource="http://purl.org/dc/dcmitype/StillImage" />
      </cc:Work>
    </rdf:RDF>
  </metadata>
  <g
     inkscape:label="Layer 1"
     inkscape:groupmode="layer"
     id="layer1"
     transform="translate(14.497841,-12.682091)">
    <path
       id="path2301"
       d="M 39.651378,40.595642 H 88.53818"
       style="fill:none;stroke:#8c8c8c;stroke-width:0.264583;stroke-linecap:butt;stroke-linejoin:miter;stroke-miterlimit:4;stroke-dasharray:none;stroke-opacity:1" />
    <rect
       y="14.401882"
       x="-12.778049"
       height="52.387501"
       width="52.387501"
       id="rect1677"
       style="font-variation-settings:normal;vector-effect:none;fill:none;fill-opacity:1;stroke:#010101;stroke-width:0.79375;stroke-linecap:butt;stroke-linejoin:miter;stroke-miterlimit:4;stroke-dasharray:none;stroke-dashoffset:0;stroke-opacity:1;stop-color:#000000" />
    <path
       style="font-variation-settings:normal;vector-effect:none;fill:none;fill-opacity:1;stroke:#050505;stroke-width:0.264583;stroke-linecap:butt;stroke-linejoin:miter;stroke-miterlimit:4;stroke-dasharray:none;stroke-dashoffset:0;stroke-opacity:1;stop-color:#000000"
       d="M -7.3276215,14.448229 V 66.782192"
       id="path1693" />
    <path
       id="path1709"
       d="M -2.1417785,14.46781 V 66.801773"
       style="font-variation-settings:normal;vector-effect:none;fill:none;fill-opacity:1;stroke:#050505;stroke-width:0.264583;stroke-linecap:butt;stroke-linejoin:miter;stroke-miterlimit:4;stroke-dasharray:none;stroke-dashoffset:0;stroke-opacity:1;stop-color:#000000" />
    <path
       style="font-variation-settings:normal;vector-effect:none;fill:none;fill-opacity:1;stroke:#050505;stroke-width:0.264583;stroke-linecap:butt;stroke-linejoin:miter;stroke-miterlimit:4;stroke-dasharray:none;stroke-dashoffset:0;stroke-opacity:1;stop-color:#000000"
       d="M 3.0440645,14.48739 V 66.821353"
       id="path1711" />
    <path
       id="path1713"
       d="M 8.2299075,14.506971 V 66.840934"
       style="font-variation-settings:normal;vector-effect:none;fill:none;fill-opacity:1;stroke:#050505;stroke-width:0.264583;stroke-linecap:butt;stroke-linejoin:miter;stroke-miterlimit:4;stroke-dasharray:none;stroke-dashoffset:0;stroke-opacity:1;stop-color:#000000" />
    <path
       style="font-variation-settings:normal;vector-effect:none;fill:none;fill-opacity:1;stroke:#050505;stroke-width:0.264583;stroke-linecap:butt;stroke-linejoin:miter;stroke-miterlimit:4;stroke-dasharray:none;stroke-dashoffset:0;stroke-opacity:1;stop-color:#000000"
       d="M 13.41575,14.526551 V 66.860514"
       id="path1715" />
    <path
       id="path1717"
       d="M 18.601593,14.546132 V 66.880095"
       style="font-variation-settings:normal;vector-effect:none;fill:none;fill-opacity:1;stroke:#050505;stroke-width:0.264583;stroke-linecap:butt;stroke-linejoin:miter;stroke-miterlimit:4;stroke-dasharray:none;stroke-dashoffset:0;stroke-opacity:1;stop-color:#000000" />
    <path
       style="font-variation-settings:normal;vector-effect:none;fill:none;fill-opacity:1;stroke:#050505;stroke-width:0.264583;stroke-linecap:butt;stroke-linejoin:miter;stroke-miterlimit:4;stroke-dasharray:none;stroke-dashoffset:0;stroke-opacity:1;stop-color:#000000"
       d="M 23.787436,14.565712 V 66.899675"
       id="path1719" />
    <path
       id="path1721"
       d="M 28.973279,14.585293 V 66.919256"
       style="font-variation-settings:normal;vector-effect:none;fill:none;fill-opacity:1;stroke:#050505;stroke-width:0.264583;stroke-linecap:butt;stroke-linejoin:miter;stroke-miterlimit:4;stroke-dasharray:none;stroke-dashoffset:0;stroke-opacity:1;stop-color:#000000" />
    <path
       style="font-variation-settings:normal;vector-effect:none;fill:none;fill-opacity:1;stroke:#050505;stroke-width:0.264583;stroke-linecap:butt;stroke-linejoin:miter;stroke-miterlimit:4;stroke-dasharray:none;stroke-dashoffset:0;stroke-opacity:1;stop-color:#000000"
       d="M 34.159122,14.604873 V 66.938836"
       id="path1723" />
    <path
       id="path1760"
       d="M 39.661005,19.85226 H -12.672958"
       style="font-variation-settings:normal;vector-effect:none;fill:none;fill-opacity:1;stroke:#050505;stroke-width:0.264583;stroke-linecap:butt;stroke-linejoin:miter;stroke-miterlimit:4;stroke-dasharray:none;stroke-dashoffset:0;stroke-opacity:1;stop-color:#000000" />
    <path
       style="font-variation-settings:normal;vector-effect:none;fill:none;fill-opacity:1;stroke:#050505;stroke-width:0.264583;stroke-linecap:butt;stroke-linejoin:miter;stroke-miterlimit:4;stroke-dasharray:none;stroke-dashoffset:0;stroke-opacity:1;stop-color:#000000"
       d="M 39.641424,25.038103 H -12.692539"
       id="path1762" />
    <path
       id="path1764"
       d="M 39.621844,30.223946 H -12.712119"
       style="font-variation-settings:normal;vector-effect:none;fill:none;fill-opacity:1;stroke:#050505;stroke-width:0.264583;stroke-linecap:butt;stroke-linejoin:miter;stroke-miterlimit:4;stroke-dasharray:none;stroke-dashoffset:0;stroke-opacity:1;stop-color:#000000" />
    <path
       style="font-variation-settings:normal;vector-effect:none;fill:none;fill-opacity:1;stroke:#050505;stroke-width:0.264583;stroke-linecap:butt;stroke-linejoin:miter;stroke-miterlimit:4;stroke-dasharray:none;stroke-dashoffset:0;stroke-opacity:1;stop-color:#000000"
       d="M 39.602263,35.409789 H -12.7317"
       id="path1766" />
    <path
       id="path1768"
       d="M 39.582683,40.595632 H -12.75128"
       style="font-variation-settings:normal;vector-effect:none;fill:none;fill-opacity:1;stroke:#050505;stroke-width:0.264583;stroke-linecap:butt;stroke-linejoin:miter;stroke-miterlimit:4;stroke-dasharray:none;stroke-dashoffset:0;stroke-opacity:1;stop-color:#000000" />
    <path
       style="font-variation-settings:normal;vector-effect:none;fill:none;fill-opacity:1;stroke:#050505;stroke-width:0.264583;stroke-linecap:butt;stroke-linejoin:miter;stroke-miterlimit:4;stroke-dasharray:none;stroke-dashoffset:0;stroke-opacity:1;stop-color:#000000"
       d="M 39.563102,45.781475 H -12.770861"
       id="path1770" />
    <path
       id="path1772"
       d="M 39.543522,50.967318 H -12.790441"
       style="font-variation-settings:normal;vector-effect:none;fill:none;fill-opacity:1;stroke:#050505;stroke-width:0.264583;stroke-linecap:butt;stroke-linejoin:miter;stroke-miterlimit:4;stroke-dasharray:none;stroke-dashoffset:0;stroke-opacity:1;stop-color:#000000" />
    <path
       style="font-variation-settings:normal;vector-effect:none;fill:none;fill-opacity:1;stroke:#050505;stroke-width:0.264583;stroke-linecap:butt;stroke-linejoin:miter;stroke-miterlimit:4;stroke-dasharray:none;stroke-dashoffset:0;stroke-opacity:1;stop-color:#000000"
       d="M 39.523941,56.153161 H -12.810022"
       id="path1774" />
    <path
       id="path1776"
       d="M 39.504361,61.339004 H -12.829602"
       style="font-variation-settings:normal;vector-effect:none;fill:none;fill-opacity:1;stroke:#050505;stroke-width:0.264583;stroke-linecap:butt;stroke-linejoin:miter;stroke-miterlimit:4;stroke-dasharray:none;stroke-dashoffset:0;stroke-opacity:1;stop-color:#000000" />
    <rect
       style="font-variation-settings:normal;vector-effect:none;fill:#8c8c8c;fill-opacity:1;stroke:none;stroke-width:0.264583;stroke-linecap:butt;stroke-linejoin:miter;stroke-miterlimit:4;stroke-dasharray:none;stroke-dashoffset:0;stroke-opacity:1;stop-color:#000000"
       id="rect1854"
       width="4.9212604"
       height="4.9212594"
       x="8.3621988"
       y="19.984554" />
    <path
       d="m 11.265352,22.301696 q 0.349677,0.07476 0.545014,0.311092 0.197748,0.236334 0.197748,0.583599 0,0.532957 -0.366558,0.824756 -0.366558,0.2918 -1.041797,0.2918 -0.226687,0 -0.467844,-0.04582 -0.2387452,-0.04341 -0.4943713,-0.132636 v -0.470256 q 0.2025717,0.118167 0.4437283,0.178456 0.241157,0.06029 0.504018,0.06029 0.458197,0 0.696943,-0.180868 0.241156,-0.180867 0.241156,-0.525722 0,-0.318326 -0.224275,-0.496782 -0.221865,-0.180868 -0.619773,-0.180868 h -0.419613 v -0.40032 h 0.438905 q 0.359324,0 0.549838,-0.142283 0.190514,-0.144694 0.190514,-0.414789 0,-0.277331 -0.197749,-0.424436 -0.195337,-0.149517 -0.561895,-0.149517 -0.20016,0 -0.429259,0.04341 -0.229099,0.04341 -0.5040178,0.135048 v -0.434082 q 0.2773298,-0.07717 0.5184868,-0.115756 0.243569,-0.03858 0.458198,-0.03858 0.554661,0 0.877811,0.253215 0.32315,0.250803 0.32315,0.680062 0,0.299034 -0.171222,0.506429 -0.171221,0.204983 -0.487136,0.284565 z"
       id="path1956"
       style="font-size:4.93889px;line-height:1;font-family:Roboto;-inkscape-font-specification:'Roboto, Normal';letter-spacing:0px;word-spacing:0px;fill:#ffffff;stroke-width:0.264583;fill-opacity:1" />
    <rect
       y="14.798709"
       x="8.3621988"
       height="4.9212594"
       width="4.9212604"
       id="rect1858"
       style="font-variation-settings:normal;vector-effect:none;fill:#8c8c8c;fill-opacity:1;stroke:none;stroke-width:0.264583;stroke-linecap:butt;stroke-linejoin:miter;stroke-miterlimit:4;stroke-dasharray:none;stroke-dashoffset:0;stroke-opacity:1;stop-color:#000000" />
    <rect
       style="font-variation-settings:normal;vector-effect:none;fill:#8c8c8c;fill-opacity:1;stroke:none;stroke-width:0.264583;stroke-linecap:butt;stroke-linejoin:miter;stroke-miterlimit:4;stroke-dasharray:none;stroke-dashoffset:0;stroke-opacity:1;stop-color:#000000"
       id="rect1860"
       width="4.9212604"
       height="4.9212594"
       x="8.3621988"
       y="25.170397" />
    <rect
       y="30.356239"
       x="8.3621988"
       height="4.9212594"
       width="4.9212604"
       id="rect1862"
       style="font-variation-settings:normal;vector-effect:none;fill:#8c8c8c;fill-opacity:1;stroke:none;stroke-width:0.264583;stroke-linecap:butt;stroke-linejoin:miter;stroke-miterlimit:4;stroke-dasharray:none;stroke-dashoffset:0;stroke-opacity:1;stop-color:#000000" />
    <rect
       style="font-variation-settings:normal;vector-effect:none;fill:#8c8c8c;fill-opacity:1;stroke:none;stroke-width:0.264583;stroke-linecap:butt;stroke-linejoin:miter;stroke-miterlimit:4;stroke-dasharray:none;stroke-dashoffset:0;stroke-opacity:1;stop-color:#000000"
       id="rect1864"
       width="4.9212604"
       height="4.9212594"
       x="8.3621988"
       y="35.54208" />
    <rect
       y="40.727924"
       x="8.3621988"
       height="4.9212594"
       width="4.9212604"
       id="rect1866"
       style="font-variation-settings:normal;vector-effect:none;fill:#8c8c8c;fill-opacity:1;stroke:none;stroke-width:0.264583;stroke-linecap:butt;stroke-linejoin:miter;stroke-miterlimit:4;stroke-dasharray:none;stroke-dashoffset:0;stroke-opacity:1;stop-color:#000000" />
    <rect
       style="font-variation-settings:normal;vector-effect:none;fill:#8c8c8c;fill-opacity:1;stroke:none;stroke-width:0.264583;stroke-linecap:butt;stroke-linejoin:miter;stroke-miterlimit:4;stroke-dasharray:none;stroke-dashoffset:0;stroke-opacity:1;stop-color:#000000"
       id="rect1868"
       width="4.9212604"
       height="4.9212594"
       x="8.3621988"
       y="45.913765" />
    <rect
       y="51.099609"
       x="8.3621988"
       height="4.9212594"
       width="4.9212604"
       id="rect1870"
       style="font-variation-settings:normal;vector-effect:none;fill:#8c8c8c;fill-opacity:1;stroke:none;stroke-width:0.264583;stroke-linecap:butt;stroke-linejoin:miter;stroke-miterlimit:4;stroke-dasharray:none;stroke-dashoffset:0;stroke-opacity:1;stop-color:#000000" />
    <rect
       style="font-variation-settings:normal;vector-effect:none;fill:#8c8c8c;fill-opacity:1;stroke:none;stroke-width:0.264583;stroke-linecap:butt;stroke-linejoin:miter;stroke-miterlimit:4;stroke-dasharray:none;stroke-dashoffset:0;stroke-opacity:1;stop-color:#000000"
       id="rect1872"
       width="4.9212604"
       height="4.9212594"
       x="8.3621988"
       y="56.285454" />
    <rect
       y="61.471294"
       x="8.3621988"
       height="4.9212594"
       width="4.9212604"
       id="rect1874"
       style="font-variation-settings:normal;vector-effect:none;fill:#8c8c8c;fill-opacity:1;stroke:none;stroke-width:0.264583;stroke-linecap:butt;stroke-linejoin:miter;stroke-miterlimit:4;stroke-dasharray:none;stroke-dashoffset:0;stroke-opacity:1;stop-color:#000000" />
    <path
       d="m 10.265757,18.682164 h 1.700155 v 0.409967 H 9.6797464 v -0.409967 q 0.2773302,-0.286976 0.7548206,-0.76929 0.479902,-0.484725 0.602892,-0.624596 0.233922,-0.262861 0.325561,-0.443728 0.09405,-0.183279 0.09405,-0.359324 0,-0.286976 -0.202572,-0.467844 -0.20016,-0.180867 -0.52331,-0.180867 -0.229099,0 -0.484725,0.07958 -0.2532149,0.07958 -0.5426029,0.241157 v -0.49196 q 0.2942112,-0.118166 0.5498369,-0.178456 0.255627,-0.06029 0.467844,-0.06029 0.559484,0 0.89228,0.279742 0.332797,0.279742 0.332797,0.747586 0,0.221864 -0.0844,0.422024 -0.08199,0.197749 -0.301446,0.467844 -0.06029,0.06994 -0.383439,0.405144 -0.32315,0.332796 -0.911573,0.933276 z"
       id="path1959"
       style="font-size:4.93889px;line-height:1;font-family:Roboto;-inkscape-font-specification:'Roboto, Normal';letter-spacing:0px;word-spacing:0px;fill:#ffffff;stroke-width:0.264583;fill-opacity:1" />
    <path
       d="m 9.9341667,29.021295 h 0.7958173 v -2.746776 l -0.8657528,0.173633 v -0.443728 l 0.8609298,-0.173633 h 0.487136 v 3.190504 h 0.795818 v 0.409966 H 9.9341667 Z"
       id="path1962"
       style="font-size:4.93889px;line-height:1;font-family:Roboto;-inkscape-font-specification:'Roboto, Normal';letter-spacing:0px;word-spacing:0px;fill:#ffffff;stroke-width:0.264583;fill-opacity:1" />
    <path
       d="m 11.265352,32.673381 q 0.349677,0.07476 0.545014,0.311092 0.197748,0.236334 0.197748,0.583599 0,0.532957 -0.366558,0.824756 -0.366558,0.2918 -1.041797,0.2918 -0.226687,0 -0.467844,-0.04582 Q 9.8931698,34.5954 9.6375437,34.506172 v -0.470255 q 0.2025717,0.118166 0.4437283,0.178456 0.241157,0.06029 0.504018,0.06029 0.458197,0 0.696943,-0.180868 0.241156,-0.180867 0.241156,-0.525722 0,-0.318326 -0.224275,-0.496782 -0.221865,-0.180868 -0.619773,-0.180868 h -0.419613 v -0.40032 h 0.438905 q 0.359324,0 0.549838,-0.142283 0.190514,-0.144694 0.190514,-0.414789 0,-0.27733 -0.197749,-0.424436 -0.195337,-0.149517 -0.561895,-0.149517 -0.20016,0 -0.429259,0.04341 -0.229099,0.04341 -0.5040178,0.135048 v -0.434082 q 0.2773298,-0.07717 0.5184868,-0.115756 0.243569,-0.03858 0.458198,-0.03858 0.554661,0 0.877811,0.253215 0.32315,0.250803 0.32315,0.680062 0,0.299034 -0.171222,0.506429 -0.171221,0.204983 -0.487136,0.284565 z"
       id="path1965"
       style="font-size:4.93889px;line-height:1;font-family:Roboto;-inkscape-font-specification:'Roboto, Normal';letter-spacing:0px;word-spacing:0px;fill:#ffffff;stroke-width:0.264583;fill-opacity:1" />
    <path
       d="m 9.6652771,36.202474 h 2.3151049 v 0.207395 l -1.30707,3.393075 h -0.50884 l 1.229899,-3.190503 H 9.6652771 Z"
       id="path1968"
       style="font-size:4.93889px;line-height:1;font-family:Roboto;-inkscape-font-specification:'Roboto, Normal';letter-spacing:0px;word-spacing:0px;fill:#ffffff;stroke-width:0.264583;fill-opacity:1" />
    <path
       d="m 9.8099711,41.353353 h 1.9123729 v 0.409966 h -1.466233 v 0.882634 q 0.106109,-0.03617 0.212218,-0.05305 0.106109,-0.01929 0.212218,-0.01929 0.602892,0 0.954981,0.330385 0.352088,0.330385 0.352088,0.894691 0,0.581188 -0.361735,0.904338 -0.361735,0.320739 -1.020093,0.320739 -0.226687,0 -0.463021,-0.03859 -0.2339216,-0.03859 -0.4847246,-0.115755 V 44.37987 q 0.217041,0.118167 0.4485516,0.176044 0.23151,0.05788 0.489548,0.05788 0.417201,0 0.66077,-0.219453 0.243568,-0.219452 0.243568,-0.595657 0,-0.376204 -0.243568,-0.595657 -0.243569,-0.219452 -0.66077,-0.219452 -0.195337,0 -0.390674,0.04341 -0.192925,0.04341 -0.3954969,0.135048 z"
       id="path1971"
       style="font-size:4.93889px;line-height:1;font-family:Roboto;-inkscape-font-specification:'Roboto, Normal';letter-spacing:0px;word-spacing:0px;fill:#ffffff;stroke-width:0.264583;fill-opacity:1" />
    <path
       d="m 10.822829,53.648261 q -0.347266,0 -0.547426,0.185691 -0.197749,0.185691 -0.197749,0.511252 0,0.325562 0.197749,0.511253 0.20016,0.18569 0.547426,0.18569 0.347265,0 0.547425,-0.18569 0.20016,-0.188103 0.20016,-0.511253 0,-0.325561 -0.20016,-0.511252 -0.197748,-0.185691 -0.547425,-0.185691 z m -0.487137,-0.207394 q -0.313504,-0.07717 -0.4895482,-0.2918 -0.1736329,-0.214629 -0.1736329,-0.52331 0,-0.431671 0.3062691,-0.682474 0.308681,-0.250803 0.844049,-0.250803 0.537779,0 0.844048,0.250803 0.306269,0.250803 0.306269,0.682474 0,0.308681 -0.176044,0.52331 -0.173633,0.21463 -0.484725,0.2918 0.352089,0.08199 0.547426,0.320738 0.197748,0.238745 0.197748,0.583599 0,0.523311 -0.320738,0.803052 -0.318327,0.279742 -0.913984,0.279742 -0.595658,0 -0.916396,-0.279742 -0.3183269,-0.279741 -0.3183269,-0.803052 0,-0.344854 0.1977485,-0.583599 0.1977485,-0.238745 0.5498374,-0.320738 z m -0.178456,-0.76929 q 0,0.279742 0.173633,0.436493 0.176044,0.156752 0.49196,0.156752 0.313503,0 0.489548,-0.156752 0.178456,-0.156751 0.178456,-0.436493 0,-0.279742 -0.178456,-0.436494 -0.176045,-0.156752 -0.489548,-0.156752 -0.315916,0 -0.49196,0.156752 -0.173633,0.156752 -0.173633,0.436494 z"
       id="path1974"
       style="font-size:4.93889px;line-height:1;font-family:Roboto;-inkscape-font-specification:'Roboto, Normal';letter-spacing:0px;word-spacing:0px;fill:#ffffff;stroke-width:0.264583;fill-opacity:1" />
    <path
       d="m 10.865031,48.177852 q -0.327973,0 -0.520898,0.224276 -0.190514,0.224276 -0.190514,0.61495 0,0.388262 0.190514,0.614949 0.192925,0.224276 0.520898,0.224276 0.327973,0 0.518487,-0.224276 0.192926,-0.226687 0.192926,-0.614949 0,-0.390674 -0.192926,-0.61495 -0.190514,-0.224276 -0.518487,-0.224276 z M 11.83207,46.65133 v 0.443728 q -0.183279,-0.08682 -0.371382,-0.132636 -0.18569,-0.04582 -0.368969,-0.04582 -0.482314,0 -0.73794,0.325562 -0.253215,0.325562 -0.289388,0.983919 0.142282,-0.209806 0.356912,-0.320738 0.214629,-0.113344 0.472667,-0.113344 0.542603,0 0.856107,0.330385 0.315915,0.327973 0.315915,0.894692 0,0.55466 -0.327973,0.889868 -0.327973,0.335208 -0.872988,0.335208 -0.624596,0 -0.9549804,-0.477491 -0.3303847,-0.479901 -0.3303847,-1.389062 0,-0.853695 0.4051433,-1.360124 0.4051438,-0.508841 1.0876168,-0.508841 0.183279,0 0.36897,0.03617 0.188102,0.03617 0.390674,0.108521 z"
       id="path1977"
       style="font-size:4.93889px;line-height:1;font-family:Roboto;-inkscape-font-specification:'Roboto, Normal';letter-spacing:0px;word-spacing:0px;fill:#ffffff;stroke-width:0.264583;fill-opacity:1" />
    <path
       d="m 9.8099711,56.910882 h 1.9123729 v 0.409967 h -1.466233 v 0.882634 q 0.106109,-0.03617 0.212218,-0.05306 0.106109,-0.01929 0.212218,-0.01929 0.602892,0 0.954981,0.330384 0.352088,0.330385 0.352088,0.894692 0,0.581188 -0.361735,0.904338 -0.361735,0.320738 -1.020093,0.320738 -0.226687,0 -0.463021,-0.03858 Q 9.9088454,60.504115 9.6580424,60.42695 V 59.9374 q 0.217041,0.118166 0.4485516,0.176044 0.23151,0.05788 0.489548,0.05788 0.417201,0 0.66077,-0.219453 0.243568,-0.219453 0.243568,-0.595657 0,-0.376205 -0.243568,-0.595657 -0.243569,-0.219453 -0.66077,-0.219453 -0.195337,0 -0.390674,0.04341 -0.192925,0.04341 -0.3954969,0.135048 z"
       id="path1980"
       style="font-size:4.93889px;line-height:1;font-family:Roboto;-inkscape-font-specification:'Roboto, Normal';letter-spacing:0px;word-spacing:0px;fill:#ffffff;stroke-width:0.264583;fill-opacity:1" />
    <path
       d="m 11.265352,63.788432 q 0.349677,0.07476 0.545014,0.311092 0.197748,0.236334 0.197748,0.5836 0,0.532956 -0.366558,0.824756 -0.366558,0.291799 -1.041797,0.291799 -0.226687,0 -0.467844,-0.04582 -0.2387452,-0.04341 -0.4943713,-0.132637 v -0.470255 q 0.2025717,0.118167 0.4437283,0.178456 0.241157,0.06029 0.504018,0.06029 0.458197,0 0.696943,-0.180868 0.241156,-0.180867 0.241156,-0.525721 0,-0.318327 -0.224275,-0.496783 -0.221865,-0.180868 -0.619773,-0.180868 h -0.419613 v -0.40032 h 0.438905 q 0.359324,0 0.549838,-0.142282 0.190514,-0.144694 0.190514,-0.41479 0,-0.27733 -0.197749,-0.424436 -0.195337,-0.149517 -0.561895,-0.149517 -0.20016,0 -0.429259,0.04341 -0.229099,0.04341 -0.5040178,0.135048 v -0.434082 q 0.2773298,-0.07717 0.5184868,-0.115755 0.243569,-0.03858 0.458198,-0.03858 0.554661,0 0.877811,0.253214 0.32315,0.250803 0.32315,0.680062 0,0.299034 -0.171222,0.506429 -0.171221,0.204983 -0.487136,0.284565 z"
       id="path1983"
       style="font-size:4.93889px;line-height:1;font-family:Roboto;-inkscape-font-specification:'Roboto, Normal';letter-spacing:0px;word-spacing:0px;fill:#ffffff;stroke-width:0.264583;fill-opacity:1" />
    <rect
       y="14.401882"
       x="88.440048"
       height="52.387501"
       width="52.387501"
       id="rect2181"
       style="font-variation-settings:normal;vector-effect:none;fill:none;fill-opacity:1;stroke:#020202;stroke-width:0.79375;stroke-linecap:butt;stroke-linejoin:miter;stroke-miterlimit:4;stroke-dasharray:none;stroke-dashoffset:0;stroke-opacity:1;stop-color:#000000" />
    <path
       style="font-variation-settings:normal;vector-effect:none;fill:none;fill-opacity:1;stroke:#050505;stroke-width:0.264583;stroke-linecap:butt;stroke-linejoin:miter;stroke-miterlimit:4;stroke-dasharray:none;stroke-dashoffset:0;stroke-opacity:1;stop-color:#000000"
       d="M 93.890477,14.448229 V 66.782192"
       id="path2183" />
    <path
       id="path2185"
       d="M 99.07632,14.46781 V 66.801773"
       style="font-variation-settings:normal;vector-effect:none;fill:none;fill-opacity:1;stroke:#050505;stroke-width:0.264583;stroke-linecap:butt;stroke-linejoin:miter;stroke-miterlimit:4;stroke-dasharray:none;stroke-dashoffset:0;stroke-opacity:1;stop-color:#000000" />
    <path
       style="font-variation-settings:normal;vector-effect:none;fill:none;fill-opacity:1;stroke:#050505;stroke-width:0.264583;stroke-linecap:butt;stroke-linejoin:miter;stroke-miterlimit:4;stroke-dasharray:none;stroke-dashoffset:0;stroke-opacity:1;stop-color:#000000"
       d="M 104.26216,14.48739 V 66.821353"
       id="path2187" />
    <path
       id="path2189"
       d="M 109.44801,14.506971 V 66.840934"
       style="font-variation-settings:normal;vector-effect:none;fill:none;fill-opacity:1;stroke:#050505;stroke-width:0.264583;stroke-linecap:butt;stroke-linejoin:miter;stroke-miterlimit:4;stroke-dasharray:none;stroke-dashoffset:0;stroke-opacity:1;stop-color:#000000" />
    <path
       style="font-variation-settings:normal;vector-effect:none;fill:none;fill-opacity:1;stroke:#050505;stroke-width:0.264583;stroke-linecap:butt;stroke-linejoin:miter;stroke-miterlimit:4;stroke-dasharray:none;stroke-dashoffset:0;stroke-opacity:1;stop-color:#000000"
       d="M 114.63385,14.526551 V 66.860514"
       id="path2191" />
    <path
       id="path2193"
       d="M 119.81969,14.546132 V 66.880095"
       style="font-variation-settings:normal;vector-effect:none;fill:none;fill-opacity:1;stroke:#050505;stroke-width:0.264583;stroke-linecap:butt;stroke-linejoin:miter;stroke-miterlimit:4;stroke-dasharray:none;stroke-dashoffset:0;stroke-opacity:1;stop-color:#000000" />
    <path
       style="font-variation-settings:normal;vector-effect:none;fill:none;fill-opacity:1;stroke:#050505;stroke-width:0.264583;stroke-linecap:butt;stroke-linejoin:miter;stroke-miterlimit:4;stroke-dasharray:none;stroke-dashoffset:0;stroke-opacity:1;stop-color:#000000"
       d="M 125.00554,14.565712 V 66.899675"
       id="path2195" />
    <path
       id="path2197"
       d="M 130.19138,14.585293 V 66.919256"
       style="font-variation-settings:normal;vector-effect:none;fill:none;fill-opacity:1;stroke:#050505;stroke-width:0.264583;stroke-linecap:butt;stroke-linejoin:miter;stroke-miterlimit:4;stroke-dasharray:none;stroke-dashoffset:0;stroke-opacity:1;stop-color:#000000" />
    <path
       style="font-variation-settings:normal;vector-effect:none;fill:none;fill-opacity:1;stroke:#050505;stroke-width:0.264583;stroke-linecap:butt;stroke-linejoin:miter;stroke-miterlimit:4;stroke-dasharray:none;stroke-dashoffset:0;stroke-opacity:1;stop-color:#000000"
       d="M 135.37722,14.604873 V 66.938836"
       id="path2199" />
    <path
       id="path2203"
       d="M 140.8791,19.85226 H 88.545142"
       style="font-variation-settings:normal;vector-effect:none;fill:none;fill-opacity:1;stroke:#050505;stroke-width:0.264583;stroke-linecap:butt;stroke-linejoin:miter;stroke-miterlimit:4;stroke-dasharray:none;stroke-dashoffset:0;stroke-opacity:1;stop-color:#000000" />
    <path
       style="font-variation-settings:normal;vector-effect:none;fill:none;fill-opacity:1;stroke:#050505;stroke-width:0.264583;stroke-linecap:butt;stroke-linejoin:miter;stroke-miterlimit:4;stroke-dasharray:none;stroke-dashoffset:0;stroke-opacity:1;stop-color:#000000"
       d="M 140.85952,25.038103 H 88.525561"
       id="path2205" />
    <path
       id="path2207"
       d="M 140.83994,30.223946 H 88.505981"
       style="font-variation-settings:normal;vector-effect:none;fill:none;fill-opacity:1;stroke:#050505;stroke-width:0.264583;stroke-linecap:butt;stroke-linejoin:miter;stroke-miterlimit:4;stroke-dasharray:none;stroke-dashoffset:0;stroke-opacity:1;stop-color:#000000" />
    <path
       style="font-variation-settings:normal;vector-effect:none;fill:none;fill-opacity:1;stroke:#050505;stroke-width:0.264583;stroke-linecap:butt;stroke-linejoin:miter;stroke-miterlimit:4;stroke-dasharray:none;stroke-dashoffset:0;stroke-opacity:1;stop-color:#000000"
       d="M 140.82036,35.409789 H 88.4864"
       id="path2209" />
    <path
       id="path2211"
       d="M 140.80078,40.595632 H 88.46682"
       style="font-variation-settings:normal;vector-effect:none;fill:none;fill-opacity:1;stroke:#050505;stroke-width:0.264583;stroke-linecap:butt;stroke-linejoin:miter;stroke-miterlimit:4;stroke-dasharray:none;stroke-dashoffset:0;stroke-opacity:1;stop-color:#000000" />
    <path
       style="font-variation-settings:normal;vector-effect:none;fill:none;fill-opacity:1;stroke:#050505;stroke-width:0.264583;stroke-linecap:butt;stroke-linejoin:miter;stroke-miterlimit:4;stroke-dasharray:none;stroke-dashoffset:0;stroke-opacity:1;stop-color:#000000"
       d="M 140.7812,45.781475 H 88.447239"
       id="path2213" />
    <path
       id="path2215"
       d="M 140.76162,50.967318 H 88.427659"
       style="font-variation-settings:normal;vector-effect:none;fill:none;fill-opacity:1;stroke:#050505;stroke-width:0.264583;stroke-linecap:butt;stroke-linejoin:miter;stroke-miterlimit:4;stroke-dasharray:none;stroke-dashoffset:0;stroke-opacity:1;stop-color:#000000" />
    <path
       style="font-variation-settings:normal;vector-effect:none;fill:none;fill-opacity:1;stroke:#050505;stroke-width:0.264583;stroke-linecap:butt;stroke-linejoin:miter;stroke-miterlimit:4;stroke-dasharray:none;stroke-dashoffset:0;stroke-opacity:1;stop-color:#000000"
       d="M 140.74204,56.153161 H 88.408078"
       id="path2217" />
    <path
       id="path2219"
       d="M 140.72246,61.339004 H 88.388498"
       style="font-variation-settings:normal;vector-effect:none;fill:none;fill-opacity:1;stroke:#050505;stroke-width:0.264583;stroke-linecap:butt;stroke-linejoin:miter;stroke-miterlimit:4;stroke-dasharray:none;stroke-dashoffset:0;stroke-opacity:1;stop-color:#000000" />
    <rect
       style="font-variation-settings:normal;vector-effect:none;fill:#8c8c8c;fill-opacity:1;stroke:none;stroke-width:0.264583;stroke-linecap:butt;stroke-linejoin:miter;stroke-miterlimit:4;stroke-dasharray:none;stroke-dashoffset:0;stroke-opacity:1;stop-color:#000000"
       id="rect2225"
       width="4.9212604"
       height="4.9212594"
       x="109.5803"
       y="19.984554" />
    <path
       d="m 112.48345,22.301696 q 0.34968,0.07476 0.54502,0.311092 0.19774,0.236334 0.19774,0.583599 0,0.532957 -0.36655,0.824756 -0.36656,0.2918 -1.0418,0.2918 -0.22669,0 -0.46785,-0.04582 -0.23874,-0.04341 -0.49437,-0.132636 v -0.470256 q 0.20257,0.118167 0.44373,0.178456 0.24116,0.06029 0.50402,0.06029 0.4582,0 0.69694,-0.180868 0.24116,-0.180867 0.24116,-0.525722 0,-0.318326 -0.22428,-0.496782 -0.22186,-0.180868 -0.61977,-0.180868 h -0.41961 v -0.40032 h 0.4389 q 0.35933,0 0.54984,-0.142283 0.19051,-0.144694 0.19051,-0.414789 0,-0.277331 -0.19774,-0.424436 -0.19534,-0.149517 -0.5619,-0.149517 -0.20016,0 -0.42926,0.04341 -0.2291,0.04341 -0.50402,0.135048 v -0.434082 q 0.27733,-0.07717 0.51849,-0.115756 0.24357,-0.03858 0.4582,-0.03858 0.55466,0 0.87781,0.253215 0.32315,0.250803 0.32315,0.680062 0,0.299034 -0.17122,0.506429 -0.17122,0.204983 -0.48714,0.284565 z"
       id="path1986"
       style="font-size:4.93889px;line-height:1;font-family:Roboto;-inkscape-font-specification:'Roboto, Normal';letter-spacing:0px;word-spacing:0px;fill:#ffffff;stroke-width:0.264583;fill-opacity:1" />
    <rect
       y="14.798709"
       x="109.5803"
       height="4.9212594"
       width="4.9212604"
       id="rect2231"
       style="font-variation-settings:normal;vector-effect:none;fill:#8c8c8c;fill-opacity:1;stroke:none;stroke-width:0.264583;stroke-linecap:butt;stroke-linejoin:miter;stroke-miterlimit:4;stroke-dasharray:none;stroke-dashoffset:0;stroke-opacity:1;stop-color:#000000" />
    <rect
       style="font-variation-settings:normal;vector-effect:none;fill:#8c8c8c;fill-opacity:1;stroke:none;stroke-width:0.264583;stroke-linecap:butt;stroke-linejoin:miter;stroke-miterlimit:4;stroke-dasharray:none;stroke-dashoffset:0;stroke-opacity:1;stop-color:#000000"
       id="rect2233"
       width="4.9212604"
       height="4.9212594"
       x="109.5803"
       y="25.170397" />
    <rect
       y="30.356239"
       x="109.5803"
       height="4.9212594"
       width="4.9212604"
       id="rect2235"
       style="font-variation-settings:normal;vector-effect:none;fill:#8c8c8c;fill-opacity:1;stroke:none;stroke-width:0.264583;stroke-linecap:butt;stroke-linejoin:miter;stroke-miterlimit:4;stroke-dasharray:none;stroke-dashoffset:0;stroke-opacity:1;stop-color:#000000" />
    <rect
       style="font-variation-settings:normal;vector-effect:none;fill:#8c8c8c;fill-opacity:1;stroke:none;stroke-width:0.264583;stroke-linecap:butt;stroke-linejoin:miter;stroke-miterlimit:4;stroke-dasharray:none;stroke-dashoffset:0;stroke-opacity:1;stop-color:#000000"
       id="rect2237"
       width="4.9212604"
       height="4.9212594"
       x="109.5803"
       y="35.54208" />
    <rect
       y="40.727924"
       x="109.5803"
       height="4.9212594"
       width="4.9212604"
       id="rect2239"
       style="font-variation-settings:normal;vector-effect:none;fill:#8c8c8c;fill-opacity:1;stroke:none;stroke-width:0.264583;stroke-linecap:butt;stroke-linejoin:miter;stroke-miterlimit:4;stroke-dasharray:none;stroke-dashoffset:0;stroke-opacity:1;stop-color:#000000" />
    <rect
       style="font-variation-settings:normal;vector-effect:none;fill:#8c8c8c;fill-opacity:1;stroke:none;stroke-width:0.264583;stroke-linecap:butt;stroke-linejoin:miter;stroke-miterlimit:4;stroke-dasharray:none;stroke-dashoffset:0;stroke-opacity:1;stop-color:#000000"
       id="rect2241"
       width="4.9212604"
       height="4.9212594"
       x="109.5803"
       y="45.913765" />
    <rect
       y="51.099609"
       x="109.5803"
       height="4.9212594"
       width="4.9212604"
       id="rect2243"
       style="font-variation-settings:normal;vector-effect:none;fill:#8c8c8c;fill-opacity:1;stroke:none;stroke-width:0.264583;stroke-linecap:butt;stroke-linejoin:miter;stroke-miterlimit:4;stroke-dasharray:none;stroke-dashoffset:0;stroke-opacity:1;stop-color:#000000" />
    <rect
       style="font-variation-settings:normal;vector-effect:none;fill:#8c8c8c;fill-opacity:1;stroke:none;stroke-width:0.264583;stroke-linecap:butt;stroke-linejoin:miter;stroke-miterlimit:4;stroke-dasharray:none;stroke-dashoffset:0;stroke-opacity:1;stop-color:#000000"
       id="rect2245"
       width="4.9212604"
       height="4.9212594"
       x="109.5803"
       y="56.285454" />
    <rect
       y="61.471294"
       x="109.5803"
       height="4.9212594"
       width="4.9212604"
       id="rect2247"
       style="font-variation-settings:normal;vector-effect:none;fill:#8c8c8c;fill-opacity:1;stroke:none;stroke-width:0.264583;stroke-linecap:butt;stroke-linejoin:miter;stroke-miterlimit:4;stroke-dasharray:none;stroke-dashoffset:0;stroke-opacity:1;stop-color:#000000" />
    <path
       d="m 111.48386,18.682164 h 1.70015 v 0.409967 h -2.28616 v -0.409967 q 0.27733,-0.286976 0.75482,-0.76929 0.4799,-0.484725 0.60289,-0.624596 0.23392,-0.262861 0.32556,-0.443728 0.094,-0.183279 0.094,-0.359324 0,-0.286976 -0.20257,-0.467844 -0.20016,-0.180867 -0.52331,-0.180867 -0.2291,0 -0.48473,0.07958 -0.25321,0.07958 -0.5426,0.241157 v -0.49196 q 0.29421,-0.118166 0.54984,-0.178456 0.25562,-0.06029 0.46784,-0.06029 0.55949,0 0.89228,0.279742 0.3328,0.279742 0.3328,0.747586 0,0.221864 -0.0844,0.422024 -0.082,0.197749 -0.30144,0.467844 -0.0603,0.06994 -0.38344,0.405144 -0.32315,0.332796 -0.91157,0.933276 z"
       id="path1989"
       style="font-size:4.93889px;line-height:1;font-family:Roboto;-inkscape-font-specification:'Roboto, Normal';letter-spacing:0px;word-spacing:0px;fill:#ffffff;stroke-width:0.264583;fill-opacity:1" />
    <path
       d="m 112.48345,27.487538 q 0.34968,0.07476 0.54502,0.311093 0.19774,0.236333 0.19774,0.583599 0,0.532956 -0.36655,0.824756 -0.36656,0.2918 -1.0418,0.2918 -0.22669,0 -0.46785,-0.04582 -0.23874,-0.04341 -0.49437,-0.132636 v -0.470256 q 0.20257,0.118167 0.44373,0.178456 0.24116,0.06029 0.50402,0.06029 0.4582,0 0.69694,-0.180867 0.24116,-0.180868 0.24116,-0.525722 0,-0.318327 -0.22428,-0.496783 -0.22186,-0.180867 -0.61977,-0.180867 h -0.41961 V 27.30426 h 0.4389 q 0.35933,0 0.54984,-0.142282 0.19051,-0.144694 0.19051,-0.41479 0,-0.27733 -0.19774,-0.424436 -0.19534,-0.149517 -0.5619,-0.149517 -0.20016,0 -0.42926,0.04341 -0.2291,0.04341 -0.50402,0.135048 v -0.434082 q 0.27733,-0.07717 0.51849,-0.115755 0.24357,-0.03859 0.4582,-0.03859 0.55466,0 0.87781,0.253214 0.32315,0.250803 0.32315,0.680062 0,0.299035 -0.17122,0.506429 -0.17122,0.204984 -0.48714,0.284565 z"
       id="path1992"
       style="font-size:4.93889px;line-height:1;font-family:Roboto;-inkscape-font-specification:'Roboto, Normal';letter-spacing:0px;word-spacing:0px;fill:#ffffff;stroke-width:0.264583;fill-opacity:1" />
    <path
       d="m 112.48345,32.673381 q 0.34968,0.07476 0.54502,0.311092 0.19774,0.236334 0.19774,0.583599 0,0.532957 -0.36655,0.824756 -0.36656,0.2918 -1.0418,0.2918 -0.22669,0 -0.46785,-0.04582 -0.23874,-0.04341 -0.49437,-0.132636 v -0.470255 q 0.20257,0.118166 0.44373,0.178456 0.24116,0.06029 0.50402,0.06029 0.4582,0 0.69694,-0.180868 0.24116,-0.180867 0.24116,-0.525722 0,-0.318326 -0.22428,-0.496782 -0.22186,-0.180868 -0.61977,-0.180868 h -0.41961 v -0.40032 h 0.4389 q 0.35933,0 0.54984,-0.142283 0.19051,-0.144694 0.19051,-0.414789 0,-0.27733 -0.19774,-0.424436 -0.19534,-0.149517 -0.5619,-0.149517 -0.20016,0 -0.42926,0.04341 -0.2291,0.04341 -0.50402,0.135048 v -0.434082 q 0.27733,-0.07717 0.51849,-0.115756 0.24357,-0.03858 0.4582,-0.03858 0.55466,0 0.87781,0.253215 0.32315,0.250803 0.32315,0.680062 0,0.299034 -0.17122,0.506429 -0.17122,0.204983 -0.48714,0.284565 z"
       id="path1995"
       style="font-size:4.93889px;line-height:1;font-family:Roboto;-inkscape-font-specification:'Roboto, Normal';letter-spacing:0px;word-spacing:0px;fill:#ffffff;stroke-width:0.264583;fill-opacity:1" />
    <path
       d="m 110.88338,36.202474 h 2.3151 v 0.207395 l -1.30707,3.393075 h -0.50884 l 1.2299,-3.190503 h -1.72909 z"
       id="path1998"
       style="font-size:4.93889px;line-height:1;font-family:Roboto;-inkscape-font-specification:'Roboto, Normal';letter-spacing:0px;word-spacing:0px;fill:#ffffff;stroke-width:0.264583;fill-opacity:1" />
    <path
       d="m 110.88338,41.388319 h 2.3151 v 0.207394 l -1.30707,3.393076 h -0.50884 l 1.2299,-3.190504 h -1.72909 z"
       id="path2001"
       style="font-size:4.93889px;line-height:1;font-family:Roboto;-inkscape-font-specification:'Roboto, Normal';letter-spacing:0px;word-spacing:0px;fill:#ffffff;stroke-width:0.264583;fill-opacity:1" />
    <path
       d="m 112.04093,53.648261 q -0.34726,0 -0.54742,0.185691 -0.19775,0.185691 -0.19775,0.511252 0,0.325562 0.19775,0.511253 0.20016,0.18569 0.54742,0.18569 0.34727,0 0.54743,-0.18569 0.20016,-0.188103 0.20016,-0.511253 0,-0.325561 -0.20016,-0.511252 -0.19775,-0.185691 -0.54743,-0.185691 z m -0.48714,-0.207394 q -0.3135,-0.07717 -0.48954,-0.2918 -0.17364,-0.214629 -0.17364,-0.52331 0,-0.431671 0.30627,-0.682474 0.30868,-0.250803 0.84405,-0.250803 0.53778,0 0.84405,0.250803 0.30627,0.250803 0.30627,0.682474 0,0.308681 -0.17605,0.52331 -0.17363,0.21463 -0.48472,0.2918 0.35209,0.08199 0.54743,0.320738 0.19774,0.238745 0.19774,0.583599 0,0.523311 -0.32073,0.803052 -0.31833,0.279742 -0.91399,0.279742 -0.59566,0 -0.91639,-0.279742 -0.31833,-0.279741 -0.31833,-0.803052 0,-0.344854 0.19775,-0.583599 0.19775,-0.238745 0.54983,-0.320738 z m -0.17845,-0.76929 q 0,0.279742 0.17363,0.436493 0.17605,0.156752 0.49196,0.156752 0.3135,0 0.48955,-0.156752 0.17846,-0.156751 0.17846,-0.436493 0,-0.279742 -0.17846,-0.436494 -0.17605,-0.156752 -0.48955,-0.156752 -0.31591,0 -0.49196,0.156752 -0.17363,0.156752 -0.17363,0.436494 z"
       id="path2004"
       style="font-size:4.93889px;line-height:1;font-family:Roboto;-inkscape-font-specification:'Roboto, Normal';letter-spacing:0px;word-spacing:0px;fill:#ffffff;stroke-width:0.264583;fill-opacity:1" />
    <path
       d="m 110.88338,46.574159 h 2.3151 v 0.207395 l -1.30707,3.393075 h -0.50884 l 1.2299,-3.190503 h -1.72909 z"
       id="path2007"
       style="font-size:4.93889px;line-height:1;font-family:Roboto;-inkscape-font-specification:'Roboto, Normal';letter-spacing:0px;word-spacing:0px;fill:#ffffff;stroke-width:0.264583;fill-opacity:1" />
    <path
       d="m 112.04093,58.834106 q -0.34726,0 -0.54742,0.185691 -0.19775,0.18569 -0.19775,0.511252 0,0.325561 0.19775,0.511252 0.20016,0.185691 0.54742,0.185691 0.34727,0 0.54743,-0.185691 0.20016,-0.188102 0.20016,-0.511252 0,-0.325562 -0.20016,-0.511252 -0.19775,-0.185691 -0.54743,-0.185691 z m -0.48714,-0.207395 q -0.3135,-0.07717 -0.48954,-0.2918 -0.17364,-0.214629 -0.17364,-0.52331 0,-0.43167 0.30627,-0.682473 0.30868,-0.250803 0.84405,-0.250803 0.53778,0 0.84405,0.250803 0.30627,0.250803 0.30627,0.682473 0,0.308681 -0.17605,0.52331 -0.17363,0.21463 -0.48472,0.2918 0.35209,0.08199 0.54743,0.320739 0.19774,0.238745 0.19774,0.583599 0,0.52331 -0.32073,0.803052 -0.31833,0.279742 -0.91399,0.279742 -0.59566,0 -0.91639,-0.279742 -0.31833,-0.279742 -0.31833,-0.803052 0,-0.344854 0.19775,-0.583599 0.19775,-0.238746 0.54983,-0.320739 z m -0.17845,-0.76929 q 0,0.279742 0.17363,0.436494 0.17605,0.156752 0.49196,0.156752 0.3135,0 0.48955,-0.156752 0.17846,-0.156752 0.17846,-0.436494 0,-0.279742 -0.17846,-0.436494 -0.17605,-0.156751 -0.48955,-0.156751 -0.31591,0 -0.49196,0.156751 -0.17363,0.156752 -0.17363,0.436494 z"
       id="path2010"
       style="font-size:4.93889px;line-height:1;font-family:Roboto;-inkscape-font-specification:'Roboto, Normal';letter-spacing:0px;word-spacing:0px;fill:#ffffff;stroke-width:0.264583;fill-opacity:1" />
    <path
       d="m 112.04093,64.019943 q -0.34726,0 -0.54742,0.18569 -0.19775,0.185691 -0.19775,0.511253 0,0.325561 0.19775,0.511252 0.20016,0.185691 0.54742,0.185691 0.34727,0 0.54743,-0.185691 0.20016,-0.188102 0.20016,-0.511252 0,-0.325562 -0.20016,-0.511253 -0.19775,-0.18569 -0.54743,-0.18569 z m -0.48714,-0.207395 q -0.3135,-0.07717 -0.48954,-0.2918 -0.17364,-0.214629 -0.17364,-0.52331 0,-0.43167 0.30627,-0.682473 0.30868,-0.250803 0.84405,-0.250803 0.53778,0 0.84405,0.250803 0.30627,0.250803 0.30627,0.682473 0,0.308681 -0.17605,0.52331 -0.17363,0.21463 -0.48472,0.2918 0.35209,0.08199 0.54743,0.320738 0.19774,0.238746 0.19774,0.5836 0,0.52331 -0.32073,0.803052 -0.31833,0.279741 -0.91399,0.279741 -0.59566,0 -0.91639,-0.279741 -0.31833,-0.279742 -0.31833,-0.803052 0,-0.344854 0.19775,-0.5836 0.19775,-0.238745 0.54983,-0.320738 z m -0.17845,-0.76929 q 0,0.279742 0.17363,0.436494 0.17605,0.156751 0.49196,0.156751 0.3135,0 0.48955,-0.156751 0.17846,-0.156752 0.17846,-0.436494 0,-0.279742 -0.17846,-0.436494 -0.17605,-0.156752 -0.48955,-0.156752 -0.31591,0 -0.49196,0.156752 -0.17363,0.156752 -0.17363,0.436494 z"
       id="path2013"
       style="font-size:4.93889px;line-height:1;font-family:Roboto;-inkscape-font-specification:'Roboto, Normal';letter-spacing:0px;word-spacing:0px;fill:#ffffff;stroke-width:0.264583;fill-opacity:1" />
    <rect
       style="fill:#4c72b0;stroke:none;stroke-width:1.32291;stroke-linecap:round;stroke-miterlimit:4;stroke-dasharray:none"
       id="rect1167"
       width="33.072918"
       height="6.6145835"
       x="47.488289"
       y="37.288342" />
    <path
       d="m 51.030547,40.649293 v 0.903128 h 0.582272 q 0.292934,0 0.433111,-0.110621 0.141973,-0.112272 0.141973,-0.341769 0,-0.231148 -0.141973,-0.340117 -0.140177,-0.110621 -0.433111,-0.110621 z m 0,-1.013748 v 0.742975 h 0.537344 q 0.265976,0 0.39537,-0.09081 0.131191,-0.09246 0.131191,-0.280679 0,-0.18657 -0.131191,-0.279029 -0.129394,-0.09246 -0.39537,-0.09246 z m -0.363022,-0.274076 h 0.927323 q 0.415139,0 0.639781,0.158502 0.224642,0.158502 0.224642,0.450738 0,0.226195 -0.115016,0.35993 -0.115017,0.133736 -0.337862,0.166757 0.267773,0.05283 0.415138,0.221241 0.149163,0.166757 0.149163,0.417717 0,0.330212 -0.244411,0.510177 -0.24441,0.179965 -0.695492,0.179965 h -0.963266 z"
       id="path2016"
       style="font-size:3.52778px;line-height:1;font-family:Roboto;-inkscape-font-specification:'Roboto, Normal';letter-spacing:0px;word-spacing:0px;fill:#ffffff;stroke-width:0.264583" />
    <path
       d="m 54.216872,39.587664 q -0.39537,0 -0.628999,0.270773 -0.23183,0.270773 -0.23183,0.738022 0,0.465598 0.23183,0.736372 0.233629,0.270773 0.628999,0.270773 0.39537,0 0.625404,-0.270773 0.23183,-0.270774 0.23183,-0.736372 0,-0.467249 -0.23183,-0.738022 -0.230034,-0.270773 -0.625404,-0.270773 z m 0,-0.270773 q 0.564301,0 0.902163,0.348373 0.337862,0.346722 0.337862,0.931195 0,0.582823 -0.337862,0.931195 -0.337862,0.346723 -0.902163,0.346723 -0.566098,0 -0.905757,-0.346723 -0.337862,-0.346721 -0.337862,-0.931195 0,-0.584473 0.337862,-0.931195 0.339659,-0.348373 0.905757,-0.348373 z"
       id="path2018"
       style="font-size:3.52778px;line-height:1;font-family:Roboto;-inkscape-font-specification:'Roboto, Normal';letter-spacing:0px;word-spacing:0px;fill:#ffffff;stroke-width:0.264583" />
    <path
       d="m 55.728294,39.361469 h 2.118766 v 0.280681 h -0.876972 v 2.184346 h -0.36482 V 39.64215 h -0.876974 z"
       id="path2020"
       style="font-size:3.52778px;line-height:1;font-family:Roboto;-inkscape-font-specification:'Roboto, Normal';letter-spacing:0px;word-spacing:0px;fill:#ffffff;stroke-width:0.264583"
       sodipodi:nodetypes="ccccccccc" />
    <path
       d="m 57.911818,39.361469 h 2.118765 v 0.280681 h -0.876974 v 2.184346 H 58.788791 V 39.64215 h -0.876973 z"
       id="path2022"
       style="font-size:3.52778px;line-height:1;font-family:Roboto;-inkscape-font-specification:'Roboto, Normal';letter-spacing:0px;word-spacing:0px;fill:#ffffff;stroke-width:0.264583"
       sodipodi:nodetypes="ccccccccc" />
    <path
       d="m 61.5456,39.587664 q -0.39537,0 -0.628998,0.270773 -0.231831,0.270773 -0.231831,0.738022 0,0.465598 0.231831,0.736372 0.233628,0.270773 0.628998,0.270773 0.395371,0 0.625404,-0.270773 0.231831,-0.270774 0.231831,-0.736372 0,-0.467249 -0.231831,-0.738022 -0.230033,-0.270773 -0.625404,-0.270773 z m 0,-0.270773 q 0.564301,0 0.902164,0.348373 0.337862,0.346722 0.337862,0.931195 0,0.582823 -0.337862,0.931195 -0.337863,0.346723 -0.902164,0.346723 -0.566098,0 -0.905758,-0.346723 -0.337861,-0.346721 -0.337861,-0.931195 0,-0.584473 0.337861,-0.931195 0.33966,-0.348373 0.905758,-0.348373 z"
       id="path2024"
       style="font-size:3.52778px;line-height:1;font-family:Roboto;-inkscape-font-specification:'Roboto, Normal';letter-spacing:0px;word-spacing:0px;fill:#ffffff;stroke-width:0.264583" />
    <path
       d="m 63.353521,39.361469 h 0.540938 l 0.684709,1.677473 0.688305,-1.677473 h 0.540938 v 2.465027 h -0.354036 v -2.164534 l -0.691899,1.690681 H 64.397658 L 63.70576,39.661962 v 2.164534 h -0.352239 z"
       id="path2026"
       style="font-size:3.52778px;line-height:1;font-family:Roboto;-inkscape-font-specification:'Roboto, Normal';letter-spacing:0px;word-spacing:0px;fill:#ffffff;stroke-width:0.264583" />
    <path
       d="m 68.062021,39.635545 v 0.926242 h 0.456472 q 0.253397,0 0.391777,-0.120527 0.138379,-0.120527 0.138379,-0.34342 0,-0.221241 -0.138379,-0.341768 -0.13838,-0.120527 -0.391777,-0.120527 z m -0.363022,-0.274076 h 0.819494 q 0.451082,0 0.681115,0.188221 0.231831,0.186569 0.231831,0.54815 0,0.364883 -0.231831,0.551453 -0.230033,0.186569 -0.681115,0.186569 h -0.456472 v 0.990634 h -0.363022 z"
       id="path2028"
       style="font-size:3.52778px;line-height:1;font-family:Roboto;-inkscape-font-specification:'Roboto, Normal';letter-spacing:0px;word-spacing:0px;fill:#ffffff;stroke-width:0.264583" />
    <path
       d="m 71.00753,39.587664 q -0.395371,0 -0.628998,0.270773 -0.231831,0.270773 -0.231831,0.738022 0,0.465598 0.231831,0.736372 0.233627,0.270773 0.628998,0.270773 0.395369,0 0.625404,-0.270773 0.231831,-0.270774 0.231831,-0.736372 0,-0.467249 -0.231831,-0.738022 -0.230035,-0.270773 -0.625404,-0.270773 z m 0,-0.270773 q 0.564301,0 0.902163,0.348373 0.337861,0.346722 0.337861,0.931195 0,0.582823 -0.337861,0.931195 -0.337862,0.346723 -0.902163,0.346723 -0.566099,0 -0.905758,-0.346723 -0.337862,-0.346721 -0.337862,-0.931195 0,-0.584473 0.337862,-0.931195 0.339659,-0.348373 0.905758,-0.348373 z"
       id="path2030"
       style="font-size:3.52778px;line-height:1;font-family:Roboto;-inkscape-font-specification:'Roboto, Normal';letter-spacing:0px;word-spacing:0px;fill:#ffffff;stroke-width:0.264583" />
    <path
       d="m 73.904515,39.587664 q -0.395369,0 -0.628998,0.270773 -0.231831,0.270773 -0.231831,0.738022 0,0.465598 0.231831,0.736372 0.233629,0.270773 0.628998,0.270773 0.395371,0 0.625404,-0.270773 0.231831,-0.270774 0.231831,-0.736372 0,-0.467249 -0.231831,-0.738022 -0.230033,-0.270773 -0.625404,-0.270773 z m 0,-0.270773 q 0.564302,0 0.902164,0.348373 0.337862,0.346722 0.337862,0.931195 0,0.582823 -0.337862,0.931195 -0.337862,0.346723 -0.902164,0.346723 -0.566098,0 -0.905757,-0.346723 -0.337861,-0.346721 -0.337861,-0.931195 0,-0.584473 0.337861,-0.931195 0.339659,-0.348373 0.905757,-0.348373 z"
       id="path2032"
       style="font-size:3.52778px;line-height:1;font-family:Roboto;-inkscape-font-specification:'Roboto, Normal';letter-spacing:0px;word-spacing:0px;fill:#ffffff;stroke-width:0.264583" />
    <path
       d="m 75.712436,39.361469 h 0.363022 v 2.184347 h 1.306519 v 0.28068 h -1.669541 z"
       id="path2034"
       style="font-size:3.52778px;line-height:1;font-family:Roboto;-inkscape-font-specification:'Roboto, Normal';letter-spacing:0px;word-spacing:0px;fill:#ffffff;stroke-width:0.264583" />
  </g>
</svg>
